EESchema Schematic File Version 2
LIBS:MR1_F767_MainBoard-rescue
LIBS:power
LIBS:device
LIBS:transistors
LIBS:conn
LIBS:linear
LIBS:regul
LIBS:74xx
LIBS:cmos4000
LIBS:adc-dac
LIBS:memory
LIBS:xilinx
LIBS:microcontrollers
LIBS:dsp
LIBS:microchip
LIBS:analog_switches
LIBS:motorola
LIBS:texas
LIBS:intel
LIBS:audio
LIBS:interface
LIBS:digital-audio
LIBS:philips
LIBS:display
LIBS:cypress
LIBS:siliconi
LIBS:opto
LIBS:atmel
LIBS:contrib
LIBS:valves
LIBS:con_adns9800
LIBS:ft232rl
LIBS:GitSTM
LIBS:l3gd20_akizuki
LIBS:micromouse
LIBS:noritsuna
LIBS:rq6e050at
LIBS:stm32f405rgt6
LIBS:upa2753gr
LIBS:MR1_F767_MainBoard-cache
EELAYER 25 0
EELAYER END
$Descr A3 16535 11693
encoding utf-8
Sheet 1 1
Title ""
Date ""
Rev ""
Comp ""
Comment1 ""
Comment2 ""
Comment3 ""
Comment4 ""
$EndDescr
$Comp
L CONN_02X05 P10
U 1 1 5BB88313
P 12850 1400
F 0 "P10" H 12850 1700 50  0000 C CNN
F 1 "CONN_02X05" H 12850 1100 50  0000 C CNN
F 2 "BoxHeader:IDC-Header_2x05_P2.54mm_Vertical" H 12850 200 50  0001 C CNN
F 3 "" H 12850 200 50  0000 C CNN
	1    12850 1400
	1    0    0    -1  
$EndComp
$Comp
L CONN_02X05 P11
U 1 1 5BB88432
P 12850 2550
F 0 "P11" H 12850 2850 50  0000 C CNN
F 1 "CONN_02X05" H 12850 2250 50  0000 C CNN
F 2 "BoxHeader:IDC-Header_2x05_P2.54mm_Vertical" H 12850 1350 50  0001 C CNN
F 3 "" H 12850 1350 50  0000 C CNN
	1    12850 2550
	1    0    0    -1  
$EndComp
$Comp
L CONN_02X05 P16
U 1 1 5BB88487
P 14950 1400
F 0 "P16" H 14950 1700 50  0000 C CNN
F 1 "CONN_02X05" H 14950 1100 50  0000 C CNN
F 2 "BoxHeader:IDC-Header_2x05_P2.54mm_Vertical" H 14950 200 50  0001 C CNN
F 3 "" H 14950 200 50  0000 C CNN
	1    14950 1400
	1    0    0    -1  
$EndComp
$Comp
L CONN_02X05 P17
U 1 1 5BB88515
P 14950 2550
F 0 "P17" H 14950 2850 50  0000 C CNN
F 1 "CONN_02X05" H 14950 2250 50  0000 C CNN
F 2 "BoxHeader:IDC-Header_2x05_P2.54mm_Vertical" H 14950 1350 50  0001 C CNN
F 3 "" H 14950 1350 50  0000 C CNN
	1    14950 2550
	1    0    0    -1  
$EndComp
Text Notes 12200 800  0    197  ~ 39
Undercarriage MD
$Comp
L LED D2
U 1 1 5BB8AB6F
P 4050 9250
F 0 "D2" H 4050 9350 50  0000 C CNN
F 1 "LED" H 4050 9150 50  0000 C CNN
F 2 "MyKicadFP:LED_1608" H 4050 9250 50  0001 C CNN
F 3 "" H 4050 9250 50  0000 C CNN
	1    4050 9250
	-1   0    0    1   
$EndComp
$Comp
L LED D3
U 1 1 5BB8B236
P 4050 9600
F 0 "D3" H 4050 9700 50  0000 C CNN
F 1 "LED" H 4050 9500 50  0000 C CNN
F 2 "MyKicadFP:LED_1608" H 4050 9600 50  0001 C CNN
F 3 "" H 4050 9600 50  0000 C CNN
	1    4050 9600
	-1   0    0    1   
$EndComp
$Comp
L SPEAKER SP1
U 1 1 5BB8B481
P 2600 9500
F 0 "SP1" H 2500 9750 50  0000 C CNN
F 1 "SPEAKER" H 2500 9250 50  0000 C CNN
F 2 "MyKicadFP:PKM22EPPH2001_B0" H 2600 9500 50  0001 C CNN
F 3 "" H 2600 9500 50  0000 C CNN
	1    2600 9500
	1    0    0    -1  
$EndComp
$Comp
L SW_PUSH SW2
U 1 1 5BB8BAAA
P 5100 9250
F 0 "SW2" H 5250 9360 50  0000 C CNN
F 1 "SW_PUSH" H 5100 9170 50  0000 C CNN
F 2 "MyKicadFP:PushSwtich" H 5100 9250 50  0001 C CNN
F 3 "" H 5100 9250 50  0000 C CNN
	1    5100 9250
	1    0    0    -1  
$EndComp
$Comp
L R R6
U 1 1 5BB8F791
P 2000 9500
F 0 "R6" V 2080 9500 50  0000 C CNN
F 1 "1k" V 2000 9500 50  0000 C CNN
F 2 "MyKicadFP:1608" V 1930 9500 50  0001 C CNN
F 3 "" H 2000 9500 50  0000 C CNN
	1    2000 9500
	-1   0    0    1   
$EndComp
$Comp
L R R3
U 1 1 5BB90686
P 1450 10050
F 0 "R3" V 1530 10050 50  0000 C CNN
F 1 "470" V 1450 10050 50  0000 C CNN
F 2 "MyKicadFP:1608" V 1380 10050 50  0001 C CNN
F 3 "" H 1450 10050 50  0000 C CNN
	1    1450 10050
	0    -1   -1   0   
$EndComp
$Comp
L R R4
U 1 1 5BB9087A
P 1650 10250
F 0 "R4" V 1730 10250 50  0000 C CNN
F 1 "470k" V 1650 10250 50  0000 C CNN
F 2 "MyKicadFP:1608" V 1580 10250 50  0001 C CNN
F 3 "" H 1650 10250 50  0000 C CNN
	1    1650 10250
	1    0    0    -1  
$EndComp
$Comp
L GND #PWR01
U 1 1 5BB908DA
P 2000 10500
F 0 "#PWR01" H 2000 10250 50  0001 C CNN
F 1 "GND" H 2000 10350 50  0000 C CNN
F 2 "" H 2000 10500 50  0000 C CNN
F 3 "" H 2000 10500 50  0000 C CNN
	1    2000 10500
	1    0    0    -1  
$EndComp
Text GLabel 1200 10050 0    51   Input ~ 0
BUZZER
Text GLabel 3350 9250 0    51   Input ~ 0
LED1
Text GLabel 3350 9600 0    51   Input ~ 0
LED2
$Comp
L R R8
U 1 1 5BB92613
P 3600 9250
F 0 "R8" V 3680 9250 50  0000 C CNN
F 1 "1k" V 3600 9250 50  0000 C CNN
F 2 "MyKicadFP:1608" V 3530 9250 50  0001 C CNN
F 3 "" H 3600 9250 50  0000 C CNN
	1    3600 9250
	0    -1   -1   0   
$EndComp
$Comp
L R R9
U 1 1 5BB9315D
P 3600 9600
F 0 "R9" V 3680 9600 50  0000 C CNN
F 1 "1k" V 3600 9600 50  0000 C CNN
F 2 "MyKicadFP:1608" V 3530 9600 50  0001 C CNN
F 3 "" H 3600 9600 50  0000 C CNN
	1    3600 9600
	0    -1   -1   0   
$EndComp
$Comp
L SW_PUSH SW3
U 1 1 5BB95576
P 5100 9900
F 0 "SW3" H 5250 10010 50  0000 C CNN
F 1 "SW_PUSH" H 5100 9820 50  0000 C CNN
F 2 "MyKicadFP:PushSwtich" H 5100 9900 50  0001 C CNN
F 3 "" H 5100 9900 50  0000 C CNN
	1    5100 9900
	1    0    0    -1  
$EndComp
$Comp
L SW_PUSH SW4
U 1 1 5BB95822
P 5100 10550
F 0 "SW4" H 5250 10660 50  0000 C CNN
F 1 "SW_PUSH" H 5100 10470 50  0000 C CNN
F 2 "MyKicadFP:PushSwtich" H 5100 10550 50  0001 C CNN
F 3 "" H 5100 10550 50  0000 C CNN
	1    5100 10550
	1    0    0    -1  
$EndComp
Text Notes 12150 6550 0    197  ~ 39
Rotary Encoder
$Comp
L CONN_01X06 P20
U 1 1 5BB9CEDA
P 15300 7600
F 0 "P20" H 15300 7950 50  0000 C CNN
F 1 "CONN_01X06" V 15400 7600 50  0000 C CNN
F 2 "Connectors_JST:JST_XH_B06B-XH-A_06x2.50mm_Straight" H 15300 7600 50  0001 C CNN
F 3 "" H 15300 7600 50  0000 C CNN
	1    15300 7600
	1    0    0    -1  
$EndComp
Text Notes 9750 3150 0    138  ~ 28
RS-485
Text Notes 1250 5550 0    197  ~ 39
Power Supply
$Comp
L MPU9250_Module U6
U 1 1 5BBB08A1
P 10300 1650
F 0 "U6" H 10300 2000 51  0000 C CNN
F 1 "MPU9250_Module" H 10300 1300 51  0000 C CNN
F 2 "MyKicadFP:MPU9250Module" H 10300 1650 51  0001 C CNN
F 3 "" H 10300 1650 51  0000 C CNN
	1    10300 1650
	1    0    0    -1  
$EndComp
$Comp
L GND #PWR02
U 1 1 5BBB232E
P 4350 10400
F 0 "#PWR02" H 4350 10150 50  0001 C CNN
F 1 "GND" H 4350 10250 50  0000 C CNN
F 2 "" H 4350 10400 50  0000 C CNN
F 3 "" H 4350 10400 50  0000 C CNN
	1    4350 10400
	1    0    0    -1  
$EndComp
$Comp
L R R14
U 1 1 5BBB235D
P 5750 9250
F 0 "R14" V 5830 9250 50  0000 C CNN
F 1 "10k" V 5750 9250 50  0000 C CNN
F 2 "MyKicadFP:1608" V 5680 9250 50  0001 C CNN
F 3 "" H 5750 9250 50  0000 C CNN
	1    5750 9250
	0    -1   -1   0   
$EndComp
$Comp
L +3.3V #PWR03
U 1 1 5BBB29BE
P 4700 9150
F 0 "#PWR03" H 4700 9000 50  0001 C CNN
F 1 "+3.3V" H 4700 9290 50  0000 C CNN
F 2 "" H 4700 9150 50  0000 C CNN
F 3 "" H 4700 9150 50  0000 C CNN
	1    4700 9150
	1    0    0    -1  
$EndComp
$Comp
L GND #PWR04
U 1 1 5BBB2AA6
P 6000 9350
F 0 "#PWR04" H 6000 9100 50  0001 C CNN
F 1 "GND" H 6000 9200 50  0000 C CNN
F 2 "" H 6000 9350 50  0000 C CNN
F 3 "" H 6000 9350 50  0000 C CNN
	1    6000 9350
	1    0    0    -1  
$EndComp
Text GLabel 5900 9050 2    51   Output ~ 0
BUTTON1
$Comp
L R R15
U 1 1 5BBB38DF
P 5750 9900
F 0 "R15" V 5830 9900 50  0000 C CNN
F 1 "10k" V 5750 9900 50  0000 C CNN
F 2 "MyKicadFP:1608" V 5680 9900 50  0001 C CNN
F 3 "" H 5750 9900 50  0000 C CNN
	1    5750 9900
	0    -1   -1   0   
$EndComp
Text GLabel 5900 9700 2    51   Output ~ 0
BUTTON2
$Comp
L GND #PWR05
U 1 1 5BBB45C5
P 6000 10000
F 0 "#PWR05" H 6000 9750 50  0001 C CNN
F 1 "GND" H 6000 9850 50  0000 C CNN
F 2 "" H 6000 10000 50  0000 C CNN
F 3 "" H 6000 10000 50  0000 C CNN
	1    6000 10000
	1    0    0    -1  
$EndComp
$Comp
L R R16
U 1 1 5BBB486F
P 5750 10550
F 0 "R16" V 5830 10550 50  0000 C CNN
F 1 "10k" V 5750 10550 50  0000 C CNN
F 2 "MyKicadFP:1608" V 5680 10550 50  0001 C CNN
F 3 "" H 5750 10550 50  0000 C CNN
	1    5750 10550
	0    -1   -1   0   
$EndComp
$Comp
L GND #PWR06
U 1 1 5BBB4950
P 6000 10650
F 0 "#PWR06" H 6000 10400 50  0001 C CNN
F 1 "GND" H 6000 10500 50  0000 C CNN
F 2 "" H 6000 10650 50  0000 C CNN
F 3 "" H 6000 10650 50  0000 C CNN
	1    6000 10650
	1    0    0    -1  
$EndComp
Text GLabel 5900 10350 2    51   Output ~ 0
BUTTON3
Text Notes 9300 1000 0    197  ~ 39
IMU
$Comp
L +3.3V #PWR07
U 1 1 5BBEB7D0
P 12500 1100
F 0 "#PWR07" H 12500 950 50  0001 C CNN
F 1 "+3.3V" H 12500 1240 50  0000 C CNN
F 2 "" H 12500 1100 50  0000 C CNN
F 3 "" H 12500 1100 50  0000 C CNN
	1    12500 1100
	1    0    0    -1  
$EndComp
$Comp
L +3.3V #PWR08
U 1 1 5BBEC0CA
P 12500 2250
F 0 "#PWR08" H 12500 2100 50  0001 C CNN
F 1 "+3.3V" H 12500 2390 50  0000 C CNN
F 2 "" H 12500 2250 50  0000 C CNN
F 3 "" H 12500 2250 50  0000 C CNN
	1    12500 2250
	1    0    0    -1  
$EndComp
$Comp
L GND #PWR09
U 1 1 5BBECB66
P 13200 1850
F 0 "#PWR09" H 13200 1600 50  0001 C CNN
F 1 "GND" H 13200 1700 50  0000 C CNN
F 2 "" H 13200 1850 50  0000 C CNN
F 3 "" H 13200 1850 50  0000 C CNN
	1    13200 1850
	1    0    0    -1  
$EndComp
$Comp
L GND #PWR010
U 1 1 5BBEE5E5
P 13200 3000
F 0 "#PWR010" H 13200 2750 50  0001 C CNN
F 1 "GND" H 13200 2850 50  0000 C CNN
F 2 "" H 13200 3000 50  0000 C CNN
F 3 "" H 13200 3000 50  0000 C CNN
	1    13200 3000
	1    0    0    -1  
$EndComp
$Comp
L +3.3V #PWR011
U 1 1 5BBEF3E9
P 14600 1100
F 0 "#PWR011" H 14600 950 50  0001 C CNN
F 1 "+3.3V" H 14600 1240 50  0000 C CNN
F 2 "" H 14600 1100 50  0000 C CNN
F 3 "" H 14600 1100 50  0000 C CNN
	1    14600 1100
	1    0    0    -1  
$EndComp
$Comp
L GND #PWR012
U 1 1 5BBEF9A5
P 15300 1850
F 0 "#PWR012" H 15300 1600 50  0001 C CNN
F 1 "GND" H 15300 1700 50  0000 C CNN
F 2 "" H 15300 1850 50  0000 C CNN
F 3 "" H 15300 1850 50  0000 C CNN
	1    15300 1850
	1    0    0    -1  
$EndComp
$Comp
L +3.3V #PWR013
U 1 1 5BBF0586
P 14600 2250
F 0 "#PWR013" H 14600 2100 50  0001 C CNN
F 1 "+3.3V" H 14600 2390 50  0000 C CNN
F 2 "" H 14600 2250 50  0000 C CNN
F 3 "" H 14600 2250 50  0000 C CNN
	1    14600 2250
	1    0    0    -1  
$EndComp
$Comp
L GND #PWR014
U 1 1 5BBF1954
P 15300 3000
F 0 "#PWR014" H 15300 2750 50  0001 C CNN
F 1 "GND" H 15300 2850 50  0000 C CNN
F 2 "" H 15300 3000 50  0000 C CNN
F 3 "" H 15300 3000 50  0000 C CNN
	1    15300 3000
	1    0    0    -1  
$EndComp
Text GLabel 12500 1300 0    51   Input ~ 0
PWMH1
Text GLabel 14600 1300 0    51   Input ~ 0
PWMH2
Text GLabel 12500 1400 0    51   Input ~ 0
PHASE1
Text GLabel 14600 1400 0    51   Input ~ 0
PHASE2
Text GLabel 12500 1500 0    51   Input ~ 0
RST1
NoConn ~ 13100 1500
NoConn ~ 13100 1600
Text GLabel 14600 1500 0    51   Input ~ 0
RST2
$Comp
L +5V #PWR015
U 1 1 5BBFF3F9
P 13250 7300
F 0 "#PWR015" H 13250 7150 50  0001 C CNN
F 1 "+5V" H 13250 7440 50  0000 C CNN
F 2 "" H 13250 7300 50  0000 C CNN
F 3 "" H 13250 7300 50  0000 C CNN
	1    13250 7300
	1    0    0    -1  
$EndComp
$Comp
L +5V #PWR016
U 1 1 5BBFF6A9
P 15000 7250
F 0 "#PWR016" H 15000 7100 50  0001 C CNN
F 1 "+5V" H 15000 7390 50  0000 C CNN
F 2 "" H 15000 7250 50  0000 C CNN
F 3 "" H 15000 7250 50  0000 C CNN
	1    15000 7250
	1    0    0    -1  
$EndComp
$Comp
L CONN_01X06 P15
U 1 1 5BBFFE31
P 13550 9100
F 0 "P15" H 13550 9450 50  0000 C CNN
F 1 "CONN_01X06" V 13650 9100 50  0000 C CNN
F 2 "Connectors_JST:JST_XH_B06B-XH-A_06x2.50mm_Straight" H 13550 9100 50  0001 C CNN
F 3 "" H 13550 9100 50  0000 C CNN
	1    13550 9100
	1    0    0    -1  
$EndComp
$Comp
L +5V #PWR017
U 1 1 5BBFFEC5
P 13250 8750
F 0 "#PWR017" H 13250 8600 50  0001 C CNN
F 1 "+5V" H 13250 8890 50  0000 C CNN
F 2 "" H 13250 8750 50  0000 C CNN
F 3 "" H 13250 8750 50  0000 C CNN
	1    13250 8750
	1    0    0    -1  
$EndComp
$Comp
L CONN_01X06 P14
U 1 1 5BB9B4FB
P 13550 7650
F 0 "P14" H 13550 8000 50  0000 C CNN
F 1 "CONN_01X06" V 13650 7650 50  0000 C CNN
F 2 "Connectors_JST:JST_XH_B06B-XH-A_06x2.50mm_Straight" H 13550 7650 50  0001 C CNN
F 3 "" H 13550 7650 50  0000 C CNN
	1    13550 7650
	1    0    0    -1  
$EndComp
$Comp
L GND #PWR018
U 1 1 5BC016CD
P 15000 7950
F 0 "#PWR018" H 15000 7700 50  0001 C CNN
F 1 "GND" H 15000 7800 50  0000 C CNN
F 2 "" H 15000 7950 50  0000 C CNN
F 3 "" H 15000 7950 50  0000 C CNN
	1    15000 7950
	1    0    0    -1  
$EndComp
Text GLabel 12500 2650 0    51   Input ~ 0
RST3
Text GLabel 14600 2650 0    51   Input ~ 0
RST4
$Comp
L GND #PWR019
U 1 1 5BBDD596
P 13250 8000
F 0 "#PWR019" H 13250 7750 50  0001 C CNN
F 1 "GND" H 13250 7850 50  0000 C CNN
F 2 "" H 13250 8000 50  0000 C CNN
F 3 "" H 13250 8000 50  0000 C CNN
	1    13250 8000
	1    0    0    -1  
$EndComp
$Comp
L GND #PWR020
U 1 1 5BBDD8C4
P 13250 9450
F 0 "#PWR020" H 13250 9200 50  0001 C CNN
F 1 "GND" H 13250 9300 50  0000 C CNN
F 2 "" H 13250 9450 50  0000 C CNN
F 3 "" H 13250 9450 50  0000 C CNN
	1    13250 9450
	1    0    0    -1  
$EndComp
Text GLabel 12650 7500 0    51   Output ~ 0
ENC1_A
Text GLabel 12650 7600 0    51   Output ~ 0
ENC1_B
Text GLabel 12650 7700 0    51   Output ~ 0
ENC1_Z
Text GLabel 14400 7450 0    51   Output ~ 0
ENC2_A
Text GLabel 14400 7550 0    51   Output ~ 0
ENC2_B
Text GLabel 14400 7650 0    51   Output ~ 0
ENC2_Z
Text GLabel 12650 8950 0    51   Output ~ 0
ENC3_A
Text GLabel 12650 9050 0    51   Output ~ 0
ENC3_B
Text GLabel 12650 9150 0    51   Output ~ 0
ENC3_Z
Text GLabel 12500 2450 0    51   Input ~ 0
PWMH3
Text GLabel 12500 2550 0    51   Input ~ 0
PHASE3
NoConn ~ 15200 1500
NoConn ~ 15200 1600
NoConn ~ 13100 2650
NoConn ~ 13100 2750
NoConn ~ 15200 2650
NoConn ~ 15200 2750
Text GLabel 14600 2450 0    51   Input ~ 0
PWMH4
Text GLabel 14600 2550 0    51   Input ~ 0
PHASE4
$Comp
L +3.3V #PWR021
U 1 1 5BBEB5B6
P 13300 1100
F 0 "#PWR021" H 13300 950 50  0001 C CNN
F 1 "+3.3V" H 13300 1240 50  0000 C CNN
F 2 "" H 13300 1100 50  0000 C CNN
F 3 "" H 13300 1100 50  0000 C CNN
	1    13300 1100
	1    0    0    -1  
$EndComp
$Comp
L +3.3V #PWR022
U 1 1 5BBEBEEA
P 15400 1100
F 0 "#PWR022" H 15400 950 50  0001 C CNN
F 1 "+3.3V" H 15400 1240 50  0000 C CNN
F 2 "" H 15400 1100 50  0000 C CNN
F 3 "" H 15400 1100 50  0000 C CNN
	1    15400 1100
	1    0    0    -1  
$EndComp
$Comp
L +3.3V #PWR023
U 1 1 5BBED421
P 13300 2250
F 0 "#PWR023" H 13300 2100 50  0001 C CNN
F 1 "+3.3V" H 13300 2390 50  0000 C CNN
F 2 "" H 13300 2250 50  0000 C CNN
F 3 "" H 13300 2250 50  0000 C CNN
	1    13300 2250
	1    0    0    -1  
$EndComp
$Comp
L +3.3V #PWR024
U 1 1 5BBED7ED
P 15400 2250
F 0 "#PWR024" H 15400 2100 50  0001 C CNN
F 1 "+3.3V" H 15400 2390 50  0000 C CNN
F 2 "" H 15400 2250 50  0000 C CNN
F 3 "" H 15400 2250 50  0000 C CNN
	1    15400 2250
	1    0    0    -1  
$EndComp
$Comp
L GND #PWR025
U 1 1 5BBF0EE1
P 11150 1550
F 0 "#PWR025" H 11150 1300 50  0001 C CNN
F 1 "GND" H 11150 1400 50  0000 C CNN
F 2 "" H 11150 1550 50  0000 C CNN
F 3 "" H 11150 1550 50  0000 C CNN
	1    11150 1550
	1    0    0    -1  
$EndComp
NoConn ~ 10950 1550
NoConn ~ 10950 1650
NoConn ~ 10950 1750
Text GLabel 11150 1850 2    51   Input ~ 0
CS1
Text GLabel 9550 1650 0    51   Input ~ 0
SCLK
Text GLabel 9550 1850 0    51   Output ~ 0
MISO
Text GLabel 9550 1750 0    51   Input ~ 0
MOSI
$Comp
L +3.3V #PWR026
U 1 1 5BBF2CFC
P 9550 1350
F 0 "#PWR026" H 9550 1200 50  0001 C CNN
F 1 "+3.3V" H 9550 1490 50  0000 C CNN
F 2 "" H 9550 1350 50  0000 C CNN
F 3 "" H 9550 1350 50  0000 C CNN
	1    9550 1350
	1    0    0    -1  
$EndComp
Text Notes 9050 2850 0    197  ~ 39
Communication
Text Notes 9150 4650 0    138  ~ 28
USART
Text Notes 10400 4650 0    138  ~ 28
I2C
$Comp
L CONN_01X02 P1
U 1 1 5BC12EC2
P 850 6350
F 0 "P1" H 850 6500 50  0000 C CNN
F 1 "12V CON" V 950 6350 50  0000 C CNN
F 2 "Connectors_JST:JST_VH_B2P-VH-B_2x3.96mm_Vertical" H 850 6350 50  0001 C CNN
F 3 "" H 850 6350 50  0000 C CNN
	1    850  6350
	-1   0    0    -1  
$EndComp
$Comp
L CONN_01X03 P6
U 1 1 5BC3088E
P 9950 5050
F 0 "P6" H 9950 5250 50  0000 C CNN
F 1 "CONN_01X03" V 10050 5050 50  0000 C CNN
F 2 "Connectors_JST:JST_XH_B03B-XH-A_03x2.50mm_Straight" H 9950 5050 50  0001 C CNN
F 3 "" H 9950 5050 50  0000 C CNN
	1    9950 5050
	1    0    0    -1  
$EndComp
Text GLabel 9550 5050 0    51   Input ~ 0
USART_TX
Text GLabel 9550 4950 0    51   Output ~ 0
USART_RX
$Comp
L GND #PWR027
U 1 1 5BC3213E
P 9650 5250
F 0 "#PWR027" H 9650 5000 50  0001 C CNN
F 1 "GND" H 9650 5100 50  0000 C CNN
F 2 "" H 9650 5250 50  0000 C CNN
F 3 "" H 9650 5250 50  0000 C CNN
	1    9650 5250
	1    0    0    -1  
$EndComp
$Comp
L R R36
U 1 1 5BC41C8C
P 13050 7250
F 0 "R36" V 13130 7250 50  0000 C CNN
F 1 "10k" V 13050 7250 50  0000 C CNN
F 2 "MyKicadFP:1608" V 12980 7250 50  0001 C CNN
F 3 "" H 13050 7250 50  0000 C CNN
	1    13050 7250
	1    0    0    -1  
$EndComp
$Comp
L R R34
U 1 1 5BC43904
P 12900 7250
F 0 "R34" V 12980 7250 50  0000 C CNN
F 1 "10k" V 12900 7250 50  0000 C CNN
F 2 "MyKicadFP:1608" V 12830 7250 50  0001 C CNN
F 3 "" H 12900 7250 50  0000 C CNN
	1    12900 7250
	1    0    0    -1  
$EndComp
$Comp
L R R32
U 1 1 5BC4541A
P 12750 7250
F 0 "R32" V 12830 7250 50  0000 C CNN
F 1 "10k" V 12750 7250 50  0000 C CNN
F 2 "MyKicadFP:1608" V 12680 7250 50  0001 C CNN
F 3 "" H 12750 7250 50  0000 C CNN
	1    12750 7250
	1    0    0    -1  
$EndComp
$Comp
L +3.3V #PWR028
U 1 1 5BC457F9
P 13050 6900
F 0 "#PWR028" H 13050 6750 50  0001 C CNN
F 1 "+3.3V" H 13050 7040 50  0000 C CNN
F 2 "" H 13050 6900 50  0000 C CNN
F 3 "" H 13050 6900 50  0000 C CNN
	1    13050 6900
	1    0    0    -1  
$EndComp
$Comp
L R R33
U 1 1 5BC4B225
P 12750 8700
F 0 "R33" V 12830 8700 50  0000 C CNN
F 1 "10k" V 12750 8700 50  0000 C CNN
F 2 "MyKicadFP:1608" V 12680 8700 50  0001 C CNN
F 3 "" H 12750 8700 50  0000 C CNN
	1    12750 8700
	1    0    0    -1  
$EndComp
$Comp
L R R35
U 1 1 5BC4B702
P 12900 8700
F 0 "R35" V 12980 8700 50  0000 C CNN
F 1 "10k" V 12900 8700 50  0000 C CNN
F 2 "MyKicadFP:1608" V 12830 8700 50  0001 C CNN
F 3 "" H 12900 8700 50  0000 C CNN
	1    12900 8700
	1    0    0    -1  
$EndComp
$Comp
L R R37
U 1 1 5BC4B7D9
P 13050 8700
F 0 "R37" V 13130 8700 50  0000 C CNN
F 1 "10k" V 13050 8700 50  0000 C CNN
F 2 "MyKicadFP:1608" V 12980 8700 50  0001 C CNN
F 3 "" H 13050 8700 50  0000 C CNN
	1    13050 8700
	1    0    0    -1  
$EndComp
$Comp
L +3.3V #PWR029
U 1 1 5BC4D5B9
P 13050 8350
F 0 "#PWR029" H 13050 8200 50  0001 C CNN
F 1 "+3.3V" H 13050 8490 50  0000 C CNN
F 2 "" H 13050 8350 50  0000 C CNN
F 3 "" H 13050 8350 50  0000 C CNN
	1    13050 8350
	1    0    0    -1  
$EndComp
$Comp
L R R44
U 1 1 5BC4F0B6
P 14800 7200
F 0 "R44" V 14880 7200 50  0000 C CNN
F 1 "10k" V 14800 7200 50  0000 C CNN
F 2 "MyKicadFP:1608" V 14730 7200 50  0001 C CNN
F 3 "" H 14800 7200 50  0000 C CNN
	1    14800 7200
	1    0    0    -1  
$EndComp
$Comp
L R R43
U 1 1 5BC4F424
P 14650 7200
F 0 "R43" V 14730 7200 50  0000 C CNN
F 1 "10k" V 14650 7200 50  0000 C CNN
F 2 "MyKicadFP:1608" V 14580 7200 50  0001 C CNN
F 3 "" H 14650 7200 50  0000 C CNN
	1    14650 7200
	1    0    0    -1  
$EndComp
$Comp
L R R42
U 1 1 5BC4F6EC
P 14500 7200
F 0 "R42" V 14580 7200 50  0000 C CNN
F 1 "10k" V 14500 7200 50  0000 C CNN
F 2 "MyKicadFP:1608" V 14430 7200 50  0001 C CNN
F 3 "" H 14500 7200 50  0000 C CNN
	1    14500 7200
	1    0    0    -1  
$EndComp
$Comp
L +3.3V #PWR030
U 1 1 5BC50292
P 14800 6850
F 0 "#PWR030" H 14800 6700 50  0001 C CNN
F 1 "+3.3V" H 14800 6990 50  0000 C CNN
F 2 "" H 14800 6850 50  0000 C CNN
F 3 "" H 14800 6850 50  0000 C CNN
	1    14800 6850
	1    0    0    -1  
$EndComp
Text GLabel 5650 3800 2    51   Output ~ 0
PWMH1
Text GLabel 5650 4000 2    51   Output ~ 0
PWMH2
Text GLabel 4450 4000 0    51   Output ~ 0
PWMH3
Text GLabel 4450 3800 0    51   Output ~ 0
PWMH4
$Comp
L GND #PWR031
U 1 1 5BC376FF
P 6450 4000
F 0 "#PWR031" H 6450 3750 50  0001 C CNN
F 1 "GND" H 6450 3850 50  0000 C CNN
F 2 "" H 6450 4000 50  0000 C CNN
F 3 "" H 6450 4000 50  0000 C CNN
	1    6450 4000
	1    0    0    -1  
$EndComp
Text GLabel 5650 1400 2    51   Output ~ 0
PWMH5
Text GLabel 4450 2200 0    51   Output ~ 0
PWMH6
$Comp
L GND #PWR032
U 1 1 5BC3EE9B
P 5650 4900
F 0 "#PWR032" H 5650 4650 50  0001 C CNN
F 1 "GND" H 5650 4750 50  0000 C CNN
F 2 "" H 5650 4900 50  0000 C CNN
F 3 "" H 5650 4900 50  0000 C CNN
	1    5650 4900
	1    0    0    -1  
$EndComp
$Comp
L GND #PWR033
U 1 1 5BC3F57E
P 4450 4900
F 0 "#PWR033" H 4450 4650 50  0001 C CNN
F 1 "GND" H 4450 4750 50  0000 C CNN
F 2 "" H 4450 4900 50  0000 C CNN
F 3 "" H 4450 4900 50  0000 C CNN
	1    4450 4900
	1    0    0    -1  
$EndComp
Text GLabel 3050 2600 2    51   Input ~ 0
ENC1_A
Text GLabel 4450 2800 0    51   Input ~ 0
ENC1_B
Text GLabel 4450 2600 0    51   Input ~ 0
ENC2_A
Text GLabel 4450 2700 0    51   Input ~ 0
ENC2_B
Text GLabel 4450 3400 0    51   Input ~ 0
ENC3_A
Text GLabel 4450 3300 0    51   Input ~ 0
ENC3_B
$Comp
L GND #PWR034
U 1 1 5BC5A8DE
P 3950 3300
F 0 "#PWR034" H 3950 3050 50  0001 C CNN
F 1 "GND" H 3950 3150 50  0000 C CNN
F 2 "" H 3950 3300 50  0000 C CNN
F 3 "" H 3950 3300 50  0000 C CNN
	1    3950 3300
	1    0    0    -1  
$EndComp
Text GLabel 4450 2300 0    51   Output ~ 0
USART_TX
Text GLabel 4450 2900 0    51   Input ~ 0
USART_RX
Text Notes 1500 2450 0    51   ~ 0
USER_Btn
Text Notes 1700 2350 0    51   ~ 0
LD2
Text Notes 6000 2650 0    51   ~ 0
LD3/TIM12_CH1
Text Notes 3050 2950 0    51   ~ 0
LD1
Text GLabel 950  1600 0    51   Input ~ 0
BUTTON1
Text GLabel 1850 1300 0    51   Output ~ 0
SCLK
Text GLabel 1850 1400 0    51   Output ~ 0
MOSI
Text GLabel 3050 1300 2    51   Input ~ 0
MISO
$Comp
L CONN_01X05 P8
U 1 1 5BC85007
P 10950 3750
F 0 "P8" H 10950 4050 50  0000 C CNN
F 1 "CONN_01X05" V 11050 3750 50  0000 C CNN
F 2 "MyKicadFP:RS-485_Module" H 10950 3750 50  0001 C CNN
F 3 "" H 10950 3750 50  0000 C CNN
	1    10950 3750
	1    0    0    -1  
$EndComp
Text GLabel 10550 3650 0    51   Output ~ 0
USART2RS485_RX
Text GLabel 10550 3750 0    51   Input ~ 0
USART2RS485_TX
Text GLabel 10550 3850 0    51   Input ~ 0
USART2RS485_RTS
$Comp
L GND #PWR035
U 1 1 5BC8749C
P 10650 4050
F 0 "#PWR035" H 10650 3800 50  0001 C CNN
F 1 "GND" H 10650 3900 50  0000 C CNN
F 2 "" H 10650 4050 50  0000 C CNN
F 3 "" H 10650 4050 50  0000 C CNN
	1    10650 4050
	1    0    0    -1  
$EndComp
$Comp
L +3.3V #PWR036
U 1 1 5BC8762A
P 10650 3450
F 0 "#PWR036" H 10650 3300 50  0001 C CNN
F 1 "+3.3V" H 10650 3590 50  0000 C CNN
F 2 "" H 10650 3450 50  0000 C CNN
F 3 "" H 10650 3450 50  0000 C CNN
	1    10650 3450
	1    0    0    -1  
$EndComp
Text GLabel 3050 1400 2    51   Output ~ 0
CS1
Text Notes 1350 8500 0    197  ~ 39
User Interface
$Comp
L R R13
U 1 1 5BCAE80A
P 4450 6950
F 0 "R13" V 4530 6950 50  0000 C CNN
F 1 "20k" V 4450 6950 50  0000 C CNN
F 2 "MyKicadFP:1608" V 4380 6950 50  0001 C CNN
F 3 "" H 4450 6950 50  0000 C CNN
	1    4450 6950
	1    0    0    -1  
$EndComp
$Comp
L GND #PWR037
U 1 1 5BCB1701
P 1150 7700
F 0 "#PWR037" H 1150 7450 50  0001 C CNN
F 1 "GND" H 1150 7550 50  0000 C CNN
F 2 "" H 1150 7700 50  0000 C CNN
F 3 "" H 1150 7700 50  0000 C CNN
	1    1150 7700
	1    0    0    -1  
$EndComp
$Comp
L OKL_T6_W12 U3
U 1 1 5BCB2FFA
P 5450 6400
F 0 "U3" H 5450 6750 59  0000 C CNN
F 1 "OKL_T6_W12" H 5450 6650 59  0000 C CNN
F 2 "MyKicadFP:OKL_T6_W12" H 5450 6400 197 0001 C CNN
F 3 "" H 5450 6400 197 0000 C CNN
	1    5450 6400
	1    0    0    -1  
$EndComp
NoConn ~ 5200 7100
NoConn ~ 5100 7100
$Comp
L C C4
U 1 1 5BCB6350
P 6450 6950
F 0 "C4" H 6475 7050 50  0000 L CNN
F 1 "10u" H 6475 6850 50  0000 L CNN
F 2 "Resistors_SMD:R_1206_HandSoldering" H 6488 6800 50  0001 C CNN
F 3 "" H 6450 6950 50  0000 C CNN
	1    6450 6950
	1    0    0    -1  
$EndComp
$Comp
L R R19
U 1 1 5BCB65EB
P 6700 6950
F 0 "R19" V 6780 6950 50  0000 C CNN
F 1 "1.2k" V 6700 6950 50  0000 C CNN
F 2 "MyKicadFP:1608" V 6630 6950 50  0001 C CNN
F 3 "" H 6700 6950 50  0000 C CNN
	1    6700 6950
	1    0    0    -1  
$EndComp
$Comp
L R R18
U 1 1 5BCB66E4
P 6200 7400
F 0 "R18" V 6280 7400 50  0000 C CNN
F 1 "10" V 6200 7400 50  0000 C CNN
F 2 "MyKicadFP:1608" V 6130 7400 50  0001 C CNN
F 3 "" H 6200 7400 50  0000 C CNN
	1    6200 7400
	1    0    0    -1  
$EndComp
$Comp
L Q_PMOS_GDS Q2
U 1 1 5BCCD9BC
P 2150 6400
F 0 "Q2" H 2450 6450 50  0000 R CNN
F 1 "Q_PMOS_GDS" H 2800 6350 50  0000 R CNN
F 2 "MyKicadFP:My_TO-252-2_Rectifier" H 2350 6500 50  0001 C CNN
F 3 "" H 2150 6400 50  0000 C CNN
	1    2150 6400
	0    -1   -1   0   
$EndComp
$Comp
L Q_PMOS_GDS Q3
U 1 1 5BCCDC8C
P 3650 6400
F 0 "Q3" H 3950 6450 50  0000 R CNN
F 1 "Q_PMOS_GDS" H 4300 6350 50  0000 R CNN
F 2 "MyKicadFP:My_TO-252-2_Rectifier" H 3850 6500 50  0001 C CNN
F 3 "" H 3650 6400 50  0000 C CNN
	1    3650 6400
	0    1    -1   0   
$EndComp
$Comp
L VR VR1
U 1 1 5BCD2430
P 1350 6950
F 0 "VR1" V 1410 6904 50  0000 C TNN
F 1 "VR" V 1350 6950 50  0000 C CNN
F 2 "MyKicadFP:Varistor_D05" H 1350 6950 50  0001 C CNN
F 3 "" H 1350 6950 50  0000 C CNN
	1    1350 6950
	1    0    0    -1  
$EndComp
$Comp
L R R5
U 1 1 5BCD29BB
P 1850 6950
F 0 "R5" V 1930 6950 50  0000 C CNN
F 1 "100k" V 1850 6950 50  0000 C CNN
F 2 "MyKicadFP:1608" V 1780 6950 50  0001 C CNN
F 3 "" H 1850 6950 50  0000 C CNN
	1    1850 6950
	1    0    0    -1  
$EndComp
$Comp
L SWITCH_INV SW1
U 1 1 5BCD3025
P 2750 6900
F 0 "SW1" H 2550 7050 50  0000 C CNN
F 1 "ToggleSW" H 2600 6750 50  0000 C CNN
F 2 "MyKicadFP:ToggleSW" H 2750 6900 50  0001 C CNN
F 3 "" H 2750 6900 50  0000 C CNN
	1    2750 6900
	1    0    0    -1  
$EndComp
$Comp
L R R7
U 1 1 5BCD8EA9
P 3350 6550
F 0 "R7" V 3430 6550 50  0000 C CNN
F 1 "100k" V 3350 6550 50  0000 C CNN
F 2 "MyKicadFP:1608" V 3280 6550 50  0001 C CNN
F 3 "" H 3350 6550 50  0000 C CNN
	1    3350 6550
	1    0    0    -1  
$EndComp
NoConn ~ 3250 7000
$Comp
L C C3
U 1 1 5BCDF6C2
P 4200 6950
F 0 "C3" H 4225 7050 50  0000 L CNN
F 1 "22u" H 4225 6850 50  0000 L CNN
F 2 "Resistors_SMD:R_1206_HandSoldering" H 4238 6800 50  0001 C CNN
F 3 "" H 4200 6950 50  0000 C CNN
	1    4200 6950
	1    0    0    -1  
$EndComp
$Comp
L +12V #PWR038
U 1 1 5BCF2F30
P 2000 9150
F 0 "#PWR038" H 2000 9000 50  0001 C CNN
F 1 "+12V" H 2000 9290 50  0000 C CNN
F 2 "" H 2000 9150 50  0000 C CNN
F 3 "" H 2000 9150 50  0000 C CNN
	1    2000 9150
	1    0    0    -1  
$EndComp
$Comp
L +12V #PWR039
U 1 1 5BD07AFF
P 4200 6100
F 0 "#PWR039" H 4200 5950 50  0001 C CNN
F 1 "+12V" H 4200 6240 50  0000 C CNN
F 2 "" H 4200 6100 50  0000 C CNN
F 3 "" H 4200 6100 50  0000 C CNN
	1    4200 6100
	1    0    0    -1  
$EndComp
$Comp
L +5V #PWR040
U 1 1 5BCBBC5B
P 6700 6100
F 0 "#PWR040" H 6700 5950 50  0001 C CNN
F 1 "+5V" H 6700 6240 50  0000 C CNN
F 2 "" H 6700 6100 50  0000 C CNN
F 3 "" H 6700 6100 50  0000 C CNN
	1    6700 6100
	1    0    0    -1  
$EndComp
$Comp
L My7805 U4
U 1 1 5BD124C2
P 7700 6350
F 0 "U4" H 7850 6154 50  0000 C CNN
F 1 "NJM2391DL1-33" H 7700 6550 50  0000 C CNN
F 2 "MyKicadFP:My_TO-252-2_Rectifier" H 7700 6350 50  0001 C CNN
F 3 "" H 7700 6350 50  0000 C CNN
	1    7700 6350
	1    0    0    -1  
$EndComp
$Comp
L C C5
U 1 1 5BD12596
P 7200 6950
F 0 "C5" H 7225 7050 50  0000 L CNN
F 1 "0.1u" H 7225 6850 50  0000 L CNN
F 2 "MyKicadFP:1608" H 7238 6800 50  0001 C CNN
F 3 "" H 7200 6950 50  0000 C CNN
	1    7200 6950
	1    0    0    -1  
$EndComp
$Comp
L CP C10
U 1 1 5BD140C9
P 8200 6950
F 0 "C10" H 8225 7050 50  0000 L CNN
F 1 "22u" H 8225 6850 50  0000 L CNN
F 2 "MyKicadFP:My_AlumiCapa_6.3mm" H 8238 6800 50  0001 C CNN
F 3 "" H 8200 6950 50  0000 C CNN
	1    8200 6950
	1    0    0    -1  
$EndComp
$Comp
L +3.3V #PWR041
U 1 1 5BD149BE
P 8200 6100
F 0 "#PWR041" H 8200 5950 50  0001 C CNN
F 1 "+3.3V" H 8200 6240 50  0000 C CNN
F 2 "" H 8200 6100 50  0000 C CNN
F 3 "" H 8200 6100 50  0000 C CNN
	1    8200 6100
	1    0    0    -1  
$EndComp
$Comp
L C C11
U 1 1 5BD240E8
P 9000 1700
F 0 "C11" H 9025 1800 50  0000 L CNN
F 1 "0.1u" H 9025 1600 50  0000 L CNN
F 2 "MyKicadFP:1608" H 9038 1550 50  0001 C CNN
F 3 "" H 9000 1700 50  0000 C CNN
	1    9000 1700
	1    0    0    -1  
$EndComp
$Comp
L GND #PWR042
U 1 1 5BD246B4
P 9000 1950
F 0 "#PWR042" H 9000 1700 50  0001 C CNN
F 1 "GND" H 9000 1800 50  0000 C CNN
F 2 "" H 9000 1950 50  0000 C CNN
F 3 "" H 9000 1950 50  0000 C CNN
	1    9000 1950
	1    0    0    -1  
$EndComp
$Comp
L C C20
U 1 1 5BD2FA25
P 14650 8950
F 0 "C20" H 14675 9050 50  0000 L CNN
F 1 "0.1u" H 14675 8850 50  0000 L CNN
F 2 "MyKicadFP:1608" H 14688 8800 50  0001 C CNN
F 3 "" H 14650 8950 50  0000 C CNN
	1    14650 8950
	1    0    0    -1  
$EndComp
$Comp
L GND #PWR043
U 1 1 5BD2FA2B
P 14650 9200
F 0 "#PWR043" H 14650 8950 50  0001 C CNN
F 1 "GND" H 14650 9050 50  0000 C CNN
F 2 "" H 14650 9200 50  0000 C CNN
F 3 "" H 14650 9200 50  0000 C CNN
	1    14650 9200
	1    0    0    -1  
$EndComp
$Comp
L +3.3V #PWR044
U 1 1 5BD2FA33
P 14650 8700
F 0 "#PWR044" H 14650 8550 50  0001 C CNN
F 1 "+3.3V" H 14650 8840 50  0000 C CNN
F 2 "" H 14650 8700 50  0000 C CNN
F 3 "" H 14650 8700 50  0000 C CNN
	1    14650 8700
	1    0    0    -1  
$EndComp
$Comp
L DIP_Switch_4P SW5
U 1 1 5BD37E5B
P 7100 10000
F 0 "SW5" H 7100 10500 50  0000 C CNN
F 1 "DIP_Switch_4P" H 7100 9500 50  0000 C CNN
F 2 "MyKicadFP:DIPSW_4P" H 7100 9750 50  0001 C CNN
F 3 "" H 7100 9750 50  0000 C CNN
	1    7100 10000
	1    0    0    -1  
$EndComp
$Comp
L +3.3V #PWR045
U 1 1 5BD383D4
P 6600 9600
F 0 "#PWR045" H 6600 9450 50  0001 C CNN
F 1 "+3.3V" H 6600 9740 50  0000 C CNN
F 2 "" H 6600 9600 50  0000 C CNN
F 3 "" H 6600 9600 50  0000 C CNN
	1    6600 9600
	1    0    0    -1  
$EndComp
$Comp
L R R21
U 1 1 5BD38AF8
P 8150 9700
F 0 "R21" V 8230 9700 50  0000 C CNN
F 1 "10k" V 8150 9700 50  0000 C CNN
F 2 "MyKicadFP:1608" V 8080 9700 50  0001 C CNN
F 3 "" H 8150 9700 50  0000 C CNN
	1    8150 9700
	0    -1   -1   0   
$EndComp
$Comp
L R R22
U 1 1 5BD38DE5
P 8150 9900
F 0 "R22" V 8230 9900 50  0000 C CNN
F 1 "10k" V 8150 9900 50  0000 C CNN
F 2 "MyKicadFP:1608" V 8080 9900 50  0001 C CNN
F 3 "" H 8150 9900 50  0000 C CNN
	1    8150 9900
	0    -1   -1   0   
$EndComp
$Comp
L R R23
U 1 1 5BD38EF7
P 8150 10100
F 0 "R23" V 8230 10100 50  0000 C CNN
F 1 "10k" V 8150 10100 50  0000 C CNN
F 2 "MyKicadFP:1608" V 8080 10100 50  0001 C CNN
F 3 "" H 8150 10100 50  0000 C CNN
	1    8150 10100
	0    -1   -1   0   
$EndComp
$Comp
L R R24
U 1 1 5BD3900F
P 8150 10300
F 0 "R24" V 8230 10300 50  0000 C CNN
F 1 "10k" V 8150 10300 50  0000 C CNN
F 2 "MyKicadFP:1608" V 8080 10300 50  0001 C CNN
F 3 "" H 8150 10300 50  0000 C CNN
	1    8150 10300
	0    -1   -1   0   
$EndComp
Text GLabel 8050 9450 2    51   Output ~ 0
DIP_SW_BIT1
Text GLabel 8050 9350 2    51   Output ~ 0
DIP_SW_BIT2
Text GLabel 8050 9250 2    51   Output ~ 0
DIP_SW_BIT3
Text GLabel 8050 9150 2    51   Output ~ 0
DIP_SW_BIT4
$Comp
L GND #PWR046
U 1 1 5BD3F6F0
P 8400 10400
F 0 "#PWR046" H 8400 10150 50  0001 C CNN
F 1 "GND" H 8400 10250 50  0000 C CNN
F 2 "" H 8400 10400 50  0000 C CNN
F 3 "" H 8400 10400 50  0000 C CNN
	1    8400 10400
	1    0    0    -1  
$EndComp
$Comp
L CONN_01X03 P9
U 1 1 5BD457EF
P 11200 5050
F 0 "P9" H 11200 5250 50  0000 C CNN
F 1 "CONN_01X03" V 11300 5050 50  0000 C CNN
F 2 "Connectors_JST:JST_XH_B03B-XH-A_03x2.50mm_Straight" H 11200 5050 50  0001 C CNN
F 3 "" H 11200 5050 50  0000 C CNN
	1    11200 5050
	1    0    0    -1  
$EndComp
$Comp
L GND #PWR047
U 1 1 5BD45C03
P 10900 5250
F 0 "#PWR047" H 10900 5000 50  0001 C CNN
F 1 "GND" H 10900 5100 50  0000 C CNN
F 2 "" H 10900 5250 50  0000 C CNN
F 3 "" H 10900 5250 50  0000 C CNN
	1    10900 5250
	1    0    0    -1  
$EndComp
Text GLabel 10650 5050 0    51   Input ~ 0
SCL
Text GLabel 10650 4950 0    51   Input ~ 0
SDA
$Comp
L LED D1
U 1 1 5BC37EF9
P 3950 6650
F 0 "D1" H 3950 6750 50  0000 C CNN
F 1 "LED" H 3950 6550 50  0000 C CNN
F 2 "MyKicadFP:LED_1608" H 3950 6650 50  0001 C CNN
F 3 "" H 3950 6650 50  0000 C CNN
	1    3950 6650
	0    -1   -1   0   
$EndComp
$Comp
L R R12
U 1 1 5BC3B689
P 3950 7200
F 0 "R12" V 4030 7200 50  0000 C CNN
F 1 "2.2k" V 3950 7200 50  0000 C CNN
F 2 "MyKicadFP:1608" V 3880 7200 50  0001 C CNN
F 3 "" H 3950 7200 50  0000 C CNN
	1    3950 7200
	1    0    0    -1  
$EndComp
$Comp
L LED D8
U 1 1 5BC4236D
P 8500 6650
F 0 "D8" H 8500 6750 50  0000 C CNN
F 1 "LED" H 8500 6550 50  0000 C CNN
F 2 "MyKicadFP:LED_1608" H 8500 6650 50  0001 C CNN
F 3 "" H 8500 6650 50  0000 C CNN
	1    8500 6650
	0    -1   -1   0   
$EndComp
$Comp
L R R25
U 1 1 5BC44126
P 8500 7200
F 0 "R25" V 8580 7200 50  0000 C CNN
F 1 "470" V 8500 7200 50  0000 C CNN
F 2 "MyKicadFP:1608" V 8430 7200 50  0001 C CNN
F 3 "" H 8500 7200 50  0000 C CNN
	1    8500 7200
	1    0    0    -1  
$EndComp
$Comp
L LED D6
U 1 1 5BC618E1
P 6950 6650
F 0 "D6" H 6950 6750 50  0000 C CNN
F 1 "LED" H 6950 6550 50  0000 C CNN
F 2 "MyKicadFP:LED_1608" H 6950 6650 50  0001 C CNN
F 3 "" H 6950 6650 50  0000 C CNN
	1    6950 6650
	0    -1   -1   0   
$EndComp
$Comp
L R R20
U 1 1 5BC621C3
P 6950 7200
F 0 "R20" V 7030 7200 50  0000 C CNN
F 1 "1k" V 6950 7200 50  0000 C CNN
F 2 "MyKicadFP:1608" V 6880 7200 50  0001 C CNN
F 3 "" H 6950 7200 50  0000 C CNN
	1    6950 7200
	1    0    0    -1  
$EndComp
Text GLabel 1850 3300 0    51   Output ~ 0
USART2RS485_TX
Text GLabel 1850 3200 0    51   Output ~ 0
USART2RS485_RTS
Text GLabel 1850 3400 0    51   Input ~ 0
USART2RS485_RX
$Comp
L AQM0802A-FLW-GBW U5
U 1 1 5BC87954
P 10100 9800
F 0 "U5" H 10100 10350 60  0000 C CNN
F 1 "AQM0802A-FLW-GBW" H 10100 10250 60  0000 C CNN
F 2 "MyKicadFP:AQM0802A-FLW-GBW" H 10100 9800 60  0001 C CNN
F 3 "" H 10100 9800 60  0000 C CNN
	1    10100 9800
	0    1    1    0   
$EndComp
$Comp
L R R27
U 1 1 5BC882F4
P 9800 9050
F 0 "R27" V 9880 9050 50  0000 C CNN
F 1 "20" V 9800 9050 50  0000 C CNN
F 2 "MyKicadFP:1608" V 9730 9050 50  0001 C CNN
F 3 "" H 9800 9050 50  0000 C CNN
	1    9800 9050
	1    0    0    -1  
$EndComp
$Comp
L +3.3V #PWR048
U 1 1 5BC88D3A
P 9400 8700
F 0 "#PWR048" H 9400 8550 50  0001 C CNN
F 1 "+3.3V" H 9400 8840 50  0000 C CNN
F 2 "" H 9400 8700 50  0000 C CNN
F 3 "" H 9400 8700 50  0000 C CNN
	1    9400 8700
	1    0    0    -1  
$EndComp
NoConn ~ 9900 9400
$Comp
L C C15
U 1 1 5BC8935F
P 9600 9050
F 0 "C15" H 9625 9150 50  0000 L CNN
F 1 "1u" H 9625 8950 50  0000 L CNN
F 2 "MyKicadFP:1608" H 9638 8900 50  0001 C CNN
F 3 "" H 9600 9050 50  0000 C CNN
	1    9600 9050
	1    0    0    -1  
$EndComp
$Comp
L GND #PWR049
U 1 1 5BC89E38
P 9800 10800
F 0 "#PWR049" H 9800 10550 50  0001 C CNN
F 1 "GND" H 9800 10650 50  0000 C CNN
F 2 "" H 9800 10800 50  0000 C CNN
F 3 "" H 9800 10800 50  0000 C CNN
	1    9800 10800
	1    0    0    -1  
$EndComp
Text GLabel 9000 10000 0    51   Input ~ 0
SDA
Text GLabel 9000 10100 0    51   Input ~ 0
SCL
$Comp
L C C12
U 1 1 5BCA2581
P 9100 9650
F 0 "C12" H 9125 9750 50  0000 L CNN
F 1 "1u" H 9125 9550 50  0000 L CNN
F 2 "MyKicadFP:1608" H 9138 9500 50  0001 C CNN
F 3 "" H 9100 9650 50  0000 C CNN
	1    9100 9650
	1    0    0    -1  
$EndComp
$Comp
L C C16
U 1 1 5BCAE83E
P 9600 10450
F 0 "C16" H 9625 10550 50  0000 L CNN
F 1 "1u" H 9625 10350 50  0000 L CNN
F 2 "MyKicadFP:1608" H 9638 10300 50  0001 C CNN
F 3 "" H 9600 10450 50  0000 C CNN
	1    9600 10450
	1    0    0    -1  
$EndComp
$Comp
L LED D4
U 1 1 5BCE5367
P 4050 9950
F 0 "D4" H 4050 10050 50  0000 C CNN
F 1 "LED" H 4050 9850 50  0000 C CNN
F 2 "MyKicadFP:LED_1608" H 4050 9950 50  0001 C CNN
F 3 "" H 4050 9950 50  0000 C CNN
	1    4050 9950
	-1   0    0    1   
$EndComp
$Comp
L LED D5
U 1 1 5BCE54D3
P 4050 10300
F 0 "D5" H 4050 10400 50  0000 C CNN
F 1 "LED" H 4050 10200 50  0000 C CNN
F 2 "MyKicadFP:LED_1608" H 4050 10300 50  0001 C CNN
F 3 "" H 4050 10300 50  0000 C CNN
	1    4050 10300
	-1   0    0    1   
$EndComp
$Comp
L R R10
U 1 1 5BCE563D
P 3600 9950
F 0 "R10" V 3680 9950 50  0000 C CNN
F 1 "1k" V 3600 9950 50  0000 C CNN
F 2 "MyKicadFP:1608" V 3530 9950 50  0001 C CNN
F 3 "" H 3600 9950 50  0000 C CNN
	1    3600 9950
	0    -1   -1   0   
$EndComp
$Comp
L R R11
U 1 1 5BCE5756
P 3600 10300
F 0 "R11" V 3680 10300 50  0000 C CNN
F 1 "1k" V 3600 10300 50  0000 C CNN
F 2 "MyKicadFP:1608" V 3530 10300 50  0001 C CNN
F 3 "" H 3600 10300 50  0000 C CNN
	1    3600 10300
	0    -1   -1   0   
$EndComp
Text GLabel 3350 9950 0    51   Input ~ 0
LED3
Text GLabel 3350 10300 0    51   Input ~ 0
LED4
Text Notes 10100 5850 0    138  ~ 28
Controller
$Comp
L CONN_02X05 P7
U 1 1 5BD2E014
P 10850 7050
F 0 "P7" H 10850 7350 50  0000 C CNN
F 1 "CONN_02X05" H 10850 6750 50  0000 C CNN
F 2 "BoxHeader:IDC-Header_2x05_P2.54mm_Vertical" H 10850 5850 50  0001 C CNN
F 3 "" H 10850 5850 50  0000 C CNN
	1    10850 7050
	1    0    0    -1  
$EndComp
Text GLabel 9350 6350 0    51   Output ~ 0
MISO
Text GLabel 9350 6450 0    51   Input ~ 0
MOSI
$Comp
L GND #PWR050
U 1 1 5BD32415
P 9450 7450
F 0 "#PWR050" H 9450 7200 50  0001 C CNN
F 1 "GND" H 9450 7300 50  0000 C CNN
F 2 "" H 9450 7450 50  0000 C CNN
F 3 "" H 9450 7450 50  0000 C CNN
	1    9450 7450
	1    0    0    -1  
$EndComp
$Comp
L +3.3V #PWR051
U 1 1 5BD324DD
P 9600 5900
F 0 "#PWR051" H 9600 5750 50  0001 C CNN
F 1 "+3.3V" H 9600 6040 50  0000 C CNN
F 2 "" H 9600 5900 50  0000 C CNN
F 3 "" H 9600 5900 50  0000 C CNN
	1    9600 5900
	1    0    0    -1  
$EndComp
Text GLabel 9350 6750 0    51   Input ~ 0
CS2
NoConn ~ 10600 6850
NoConn ~ 11100 6850
$Comp
L +3.3V #PWR052
U 1 1 5BD36209
P 10500 6200
F 0 "#PWR052" H 10500 6050 50  0001 C CNN
F 1 "+3.3V" H 10500 6340 50  0000 C CNN
F 2 "" H 10500 6200 50  0000 C CNN
F 3 "" H 10500 6200 50  0000 C CNN
	1    10500 6200
	1    0    0    -1  
$EndComp
$Comp
L GND #PWR053
U 1 1 5BD365AB
P 11200 7350
F 0 "#PWR053" H 11200 7100 50  0001 C CNN
F 1 "GND" H 11200 7200 50  0000 C CNN
F 2 "" H 11200 7350 50  0000 C CNN
F 3 "" H 11200 7350 50  0000 C CNN
	1    11200 7350
	1    0    0    -1  
$EndComp
NoConn ~ 10600 7150
NoConn ~ 11100 7150
Text GLabel 9350 6850 0    51   Input ~ 0
SCLK
Text GLabel 10400 6950 0    51   Output ~ 0
MISO
Text GLabel 11200 6950 2    51   Input ~ 0
MOSI
Text GLabel 10400 7050 0    51   Input ~ 0
CS3
Text GLabel 11200 7050 2    51   Input ~ 0
SCLK
Text GLabel 750  3900 0    51   Output ~ 0
SDA
Text GLabel 750  3800 0    51   Output ~ 0
SCL
NoConn ~ 1950 1500
NoConn ~ 2950 1500
$Comp
L GND #PWR054
U 1 1 5BDB530F
P 3150 1650
F 0 "#PWR054" H 3150 1400 50  0001 C CNN
F 1 "GND" H 3150 1500 50  0000 C CNN
F 2 "" H 3150 1650 50  0000 C CNN
F 3 "" H 3150 1650 50  0000 C CNN
	1    3150 1650
	1    0    0    -1  
$EndComp
NoConn ~ 2950 1800
NoConn ~ 2950 1900
NoConn ~ 2950 2000
$Comp
L +5V #PWR055
U 1 1 5BDB7328
P 3150 2050
F 0 "#PWR055" H 3150 1900 50  0001 C CNN
F 1 "+5V" H 3150 2190 50  0000 C CNN
F 2 "" H 3150 2050 50  0000 C CNN
F 3 "" H 3150 2050 50  0000 C CNN
	1    3150 2050
	1    0    0    -1  
$EndComp
$Comp
L GND #PWR056
U 1 1 5BDBDB63
P 6450 2300
F 0 "#PWR056" H 6450 2050 50  0001 C CNN
F 1 "GND" H 6450 2150 50  0000 C CNN
F 2 "" H 6450 2300 50  0000 C CNN
F 3 "" H 6450 2300 50  0000 C CNN
	1    6450 2300
	1    0    0    -1  
$EndComp
$Comp
L GND #PWR057
U 1 1 5BDBE86A
P 6450 2900
F 0 "#PWR057" H 6450 2650 50  0001 C CNN
F 1 "GND" H 6450 2750 50  0000 C CNN
F 2 "" H 6450 2900 50  0000 C CNN
F 3 "" H 6450 2900 50  0000 C CNN
	1    6450 2900
	1    0    0    -1  
$EndComp
NoConn ~ 5550 1600
$Comp
L GND #PWR058
U 1 1 5BDC5556
P 3150 2350
F 0 "#PWR058" H 3150 2100 50  0001 C CNN
F 1 "GND" H 3150 2200 50  0000 C CNN
F 2 "" H 3150 2350 50  0000 C CNN
F 3 "" H 3150 2350 50  0000 C CNN
	1    3150 2350
	1    0    0    -1  
$EndComp
NoConn ~ 2950 2400
$Comp
L Jumper_NC_Small JP1
U 1 1 5BE30D83
P 3950 1600
F 0 "JP1" H 3950 1680 50  0000 C CNN
F 1 "Jumper_NC_Small" H 3960 1540 50  0001 C CNN
F 2 "MyKicadFP:Jumper2P" H 3950 1600 50  0001 C CNN
F 3 "" H 3950 1600 50  0000 C CNN
	1    3950 1600
	1    0    0    -1  
$EndComp
$Comp
L +3.3V #PWR059
U 1 1 5BE32B9D
P 3750 1500
F 0 "#PWR059" H 3750 1350 50  0001 C CNN
F 1 "+3.3V" H 3750 1640 50  0000 C CNN
F 2 "" H 3750 1500 50  0000 C CNN
F 3 "" H 3750 1500 50  0000 C CNN
	1    3750 1500
	1    0    0    -1  
$EndComp
$Comp
L GND #PWR060
U 1 1 5BE34B5F
P 3850 1800
F 0 "#PWR060" H 3850 1550 50  0001 C CNN
F 1 "GND" H 3850 1650 50  0000 C CNN
F 2 "" H 3850 1800 50  0000 C CNN
F 3 "" H 3850 1800 50  0000 C CNN
	1    3850 1800
	1    0    0    -1  
$EndComp
$Comp
L R R28
U 1 1 5BE44E78
P 13300 1600
F 0 "R28" V 13380 1600 50  0000 C CNN
F 1 "10k" V 13300 1600 50  0000 C CNN
F 2 "MyKicadFP:1608" V 13230 1600 50  0001 C CNN
F 3 "" H 13300 1600 50  0000 C CNN
	1    13300 1600
	1    0    0    -1  
$EndComp
Text GLabel 1850 3500 0    51   Output ~ 0
CS2
Text GLabel 1850 3600 0    51   Output ~ 0
CS3
$Comp
L GND #PWR061
U 1 1 5BE8AE24
P 1350 2300
F 0 "#PWR061" H 1350 2050 50  0001 C CNN
F 1 "GND" H 1350 2150 50  0000 C CNN
F 2 "" H 1350 2300 50  0000 C CNN
F 3 "" H 1350 2300 50  0000 C CNN
	1    1350 2300
	1    0    0    -1  
$EndComp
NoConn ~ 1950 1900
Text Notes 1700 1950 0    51   ~ 0
TMS
NoConn ~ 1950 2000
Text Notes 1700 2050 0    51   ~ 0
TCK
Text Notes 4100 3050 0    51   ~ 0
Ethernet
Text Notes 3050 2750 0    51   ~ 0
Ethernet
Text Notes 4100 2050 0    51   ~ 0
Ethernet
Text Notes 5650 2950 0    51   ~ 0
Ethernet
Text Notes 5650 1550 0    51   ~ 0
Ethernet
Text Notes 5650 2750 0    51   ~ 0
Ethernet
Text Notes 3100 4750 0    51   ~ 0
Ethernet
Text Notes 3100 4650 0    51   ~ 0
Ethernet
NoConn ~ 1950 2500
NoConn ~ 1950 2600
Text Notes 1700 2550 0    51   ~ 0
OSC
Text Notes 1700 2650 0    51   ~ 0
OSC
NoConn ~ 1950 2900
$Comp
L GND #PWR062
U 1 1 5BED4A26
P 3800 4500
F 0 "#PWR062" H 3800 4250 50  0001 C CNN
F 1 "GND" H 3800 4350 50  0000 C CNN
F 2 "" H 3800 4500 50  0000 C CNN
F 3 "" H 3800 4500 50  0000 C CNN
	1    3800 4500
	1    0    0    -1  
$EndComp
$Comp
L GND #PWR063
U 1 1 5BED5847
P 3050 4900
F 0 "#PWR063" H 3050 4650 50  0001 C CNN
F 1 "GND" H 3050 4750 50  0000 C CNN
F 2 "" H 3050 4900 50  0000 C CNN
F 3 "" H 3050 4900 50  0000 C CNN
	1    3050 4900
	1    0    0    -1  
$EndComp
$Comp
L GND #PWR064
U 1 1 5BED61A5
P 1850 4900
F 0 "#PWR064" H 1850 4650 50  0001 C CNN
F 1 "GND" H 1850 4750 50  0000 C CNN
F 2 "" H 1850 4900 50  0000 C CNN
F 3 "" H 1850 4900 50  0000 C CNN
	1    1850 4900
	1    0    0    -1  
$EndComp
Text Notes 3350 3750 0    51   ~ 0
TIM9_CH1
Text Notes 3350 4350 0    51   ~ 0
TIM9_CH2
Text Notes 1150 1750 0    51   ~ 0
TIM10_CH1
Text Notes 1150 1850 0    51   ~ 0
TIM11_CH1
Text Notes 6000 2550 0    51   ~ 0
TIM12_CH2
Text GLabel 5650 2500 2    51   BiDi ~ 0
PB15
Text GLabel 5650 2600 2    51   BiDi ~ 0
PB14
Text GLabel 3050 3700 2    51   BiDi ~ 0
PE5
Text GLabel 3050 4300 2    51   BiDi ~ 0
PE6
Text Notes 3350 3950 0    51   ~ 0
TIM13_CH1
Text GLabel 3050 3900 2    51   BiDi ~ 0
PF8
Text Notes 6000 3150 0    51   ~ 0
ADC
Text Notes 6000 3050 0    51   ~ 0
ADC
Text Notes 6000 3350 0    51   ~ 0
ADC
NoConn ~ 1950 2700
NoConn ~ 1950 2800
Text Notes 1700 2750 0    51   ~ 0
OSC
Text Notes 1700 2850 0    51   ~ 0
OSC
Text Notes 3050 3050 0    51   ~ 0
Ethernet
Text Notes 3350 3150 0    51   ~ 0
ADC
Text Notes 1400 3050 0    51   ~ 0
ADC
Text Notes 1400 3150 0    51   ~ 0
ADC
Text Notes 3350 2850 0    51   ~ 0
ADC
Text Notes 4000 1850 0    51   ~ 0
ADC
Text Notes 4000 1950 0    51   ~ 0
ADC
Text Notes 6000 2450 0    51   ~ 0
ADC
Text Notes 6000 2350 0    51   ~ 0
ADC
Text Notes 6000 4350 0    51   ~ 0
ADC
Text GLabel 4450 1800 0    51   BiDi ~ 0
PA5
Text GLabel 4450 1900 0    51   BiDi ~ 0
PA6
Text GLabel 5650 2400 2    51   BiDi ~ 0
PB1
Text GLabel 5650 2300 2    51   BiDi ~ 0
PB2
Text GLabel 5650 3000 2    51   BiDi ~ 0
PF5
Text GLabel 5650 3100 2    51   BiDi ~ 0
PF4
Text GLabel 5650 3300 2    51   BiDi ~ 0
PF10
Text GLabel 5650 4300 2    51   BiDi ~ 0
PF11
Text GLabel 3050 2800 2    51   BiDi ~ 0
PA4
Text GLabel 3050 3100 2    51   BiDi ~ 0
PC0
Text GLabel 1850 3000 0    51   BiDi ~ 0
PC2
Text GLabel 1850 3100 0    51   BiDi ~ 0
PC3
Text GLabel 5650 3500 2    51   Output ~ 0
PHASE1
Text GLabel 5650 3600 2    51   Output ~ 0
RST1
Text GLabel 5650 4100 2    51   Output ~ 0
PHASE2
Text GLabel 5650 4200 2    51   Output ~ 0
RST2
Text GLabel 5650 3700 2    51   Output ~ 0
PHASE3
Text GLabel 4450 3900 0    51   Output ~ 0
RST3
Text GLabel 4450 3600 0    51   Output ~ 0
PHASE4
Text GLabel 4450 3700 0    51   Output ~ 0
RST4
Text GLabel 4450 3500 0    51   Input ~ 0
ENC3_Z
Text GLabel 5650 1800 2    51   Output ~ 0
PHASE5
Text GLabel 5650 1900 2    51   Output ~ 0
RST5
NoConn ~ 5550 1700
NoConn ~ 1950 4700
Text Notes 5650 1750 0    51   ~ 0
STLK_TX
Text Notes 1550 4750 0    51   ~ 0
STLK_RX
Text GLabel 4450 2100 0    51   Output ~ 0
PHASE6
Text GLabel 4450 2400 0    51   Output ~ 0
RST6
Text GLabel 4450 2500 0    51   Input ~ 0
ENC2_Z
Text GLabel 4450 3100 0    51   Input ~ 0
ENC1_Z
$Comp
L R R2
U 1 1 5C0584FC
P 1000 3550
F 0 "R2" V 1080 3550 50  0000 C CNN
F 1 "2.2k" V 1000 3550 50  0000 C CNN
F 2 "MyKicadFP:1608" V 930 3550 50  0001 C CNN
F 3 "" H 1000 3550 50  0000 C CNN
	1    1000 3550
	-1   0    0    1   
$EndComp
$Comp
L R R1
U 1 1 5C05C576
P 850 3550
F 0 "R1" V 930 3550 50  0000 C CNN
F 1 "2.2k" V 850 3550 50  0000 C CNN
F 2 "MyKicadFP:1608" V 780 3550 50  0001 C CNN
F 3 "" H 850 3550 50  0000 C CNN
	1    850  3550
	-1   0    0    1   
$EndComp
$Comp
L +3.3V #PWR065
U 1 1 5C05F58F
P 850 3200
F 0 "#PWR065" H 850 3050 50  0001 C CNN
F 1 "+3.3V" H 850 3340 50  0000 C CNN
F 2 "" H 850 3200 50  0000 C CNN
F 3 "" H 850 3200 50  0000 C CNN
	1    850  3200
	1    0    0    -1  
$EndComp
Text GLabel 1850 1700 0    51   BiDi ~ 0
PF6
Text GLabel 3050 4000 2    51   Output ~ 0
BUZZER
Text GLabel 5650 4700 2    51   Output ~ 0
LED1
Text GLabel 5650 4600 2    51   Output ~ 0
LED2
Text GLabel 5650 4500 2    51   Output ~ 0
LED3
Text GLabel 5650 4400 2    51   Output ~ 0
LED4
Text GLabel 4450 4600 0    51   Input ~ 0
BUTTON2
Text GLabel 4450 4700 0    51   Input ~ 0
BUTTON3
Text GLabel 4450 4100 0    51   Input ~ 0
DIP_SW_BIT4
Text GLabel 4450 4200 0    51   Input ~ 0
DIP_SW_BIT3
Text GLabel 4450 4300 0    51   Input ~ 0
DIP_SW_BIT2
Text GLabel 4450 4500 0    51   Input ~ 0
DIP_SW_BIT1
$Comp
L R R29
U 1 1 5BCBF1B5
P 13300 2750
F 0 "R29" V 13380 2750 50  0000 C CNN
F 1 "10k" V 13300 2750 50  0000 C CNN
F 2 "MyKicadFP:1608" V 13230 2750 50  0001 C CNN
F 3 "" H 13300 2750 50  0000 C CNN
	1    13300 2750
	1    0    0    -1  
$EndComp
$Comp
L R R38
U 1 1 5BCC4655
P 15400 1600
F 0 "R38" V 15480 1600 50  0000 C CNN
F 1 "10k" V 15400 1600 50  0000 C CNN
F 2 "MyKicadFP:1608" V 15330 1600 50  0001 C CNN
F 3 "" H 15400 1600 50  0000 C CNN
	1    15400 1600
	1    0    0    -1  
$EndComp
$Comp
L R R39
U 1 1 5BCC6F18
P 15400 2750
F 0 "R39" V 15480 2750 50  0000 C CNN
F 1 "10k" V 15400 2750 50  0000 C CNN
F 2 "MyKicadFP:1608" V 15330 2750 50  0001 C CNN
F 3 "" H 15400 2750 50  0000 C CNN
	1    15400 2750
	1    0    0    -1  
$EndComp
$Comp
L CONN_02X05 P12
U 1 1 5BC970A2
P 12850 4250
F 0 "P12" H 12850 4550 50  0000 C CNN
F 1 "CONN_02X05" H 12850 3950 50  0000 C CNN
F 2 "BoxHeader:IDC-Header_2x05_P2.54mm_Vertical" H 12850 3050 50  0001 C CNN
F 3 "" H 12850 3050 50  0000 C CNN
	1    12850 4250
	1    0    0    -1  
$EndComp
$Comp
L CONN_02X05 P13
U 1 1 5BC970A8
P 12850 5400
F 0 "P13" H 12850 5700 50  0000 C CNN
F 1 "CONN_02X05" H 12850 5100 50  0000 C CNN
F 2 "BoxHeader:IDC-Header_2x05_P2.54mm_Vertical" H 12850 4200 50  0001 C CNN
F 3 "" H 12850 4200 50  0000 C CNN
	1    12850 5400
	1    0    0    -1  
$EndComp
$Comp
L CONN_02X05 P18
U 1 1 5BC970AE
P 14950 4250
F 0 "P18" H 14950 4550 50  0000 C CNN
F 1 "CONN_02X05" H 14950 3950 50  0000 C CNN
F 2 "BoxHeader:IDC-Header_2x05_P2.54mm_Vertical" H 14950 3050 50  0001 C CNN
F 3 "" H 14950 3050 50  0000 C CNN
	1    14950 4250
	1    0    0    -1  
$EndComp
$Comp
L CONN_02X05 P19
U 1 1 5BC970B4
P 14950 5400
F 0 "P19" H 14950 5700 50  0000 C CNN
F 1 "CONN_02X05" H 14950 5100 50  0000 C CNN
F 2 "BoxHeader:IDC-Header_2x05_P2.54mm_Vertical" H 14950 4200 50  0001 C CNN
F 3 "" H 14950 4200 50  0000 C CNN
	1    14950 5400
	1    0    0    -1  
$EndComp
Text Notes 12200 3650 0    197  ~ 39
Other MD
$Comp
L +3.3V #PWR066
U 1 1 5BC970BB
P 12500 3950
F 0 "#PWR066" H 12500 3800 50  0001 C CNN
F 1 "+3.3V" H 12500 4090 50  0000 C CNN
F 2 "" H 12500 3950 50  0000 C CNN
F 3 "" H 12500 3950 50  0000 C CNN
	1    12500 3950
	1    0    0    -1  
$EndComp
$Comp
L +3.3V #PWR067
U 1 1 5BC970C1
P 12500 5100
F 0 "#PWR067" H 12500 4950 50  0001 C CNN
F 1 "+3.3V" H 12500 5240 50  0000 C CNN
F 2 "" H 12500 5100 50  0000 C CNN
F 3 "" H 12500 5100 50  0000 C CNN
	1    12500 5100
	1    0    0    -1  
$EndComp
$Comp
L GND #PWR068
U 1 1 5BC970C7
P 13200 4700
F 0 "#PWR068" H 13200 4450 50  0001 C CNN
F 1 "GND" H 13200 4550 50  0000 C CNN
F 2 "" H 13200 4700 50  0000 C CNN
F 3 "" H 13200 4700 50  0000 C CNN
	1    13200 4700
	1    0    0    -1  
$EndComp
$Comp
L GND #PWR069
U 1 1 5BC970CD
P 13200 5850
F 0 "#PWR069" H 13200 5600 50  0001 C CNN
F 1 "GND" H 13200 5700 50  0000 C CNN
F 2 "" H 13200 5850 50  0000 C CNN
F 3 "" H 13200 5850 50  0000 C CNN
	1    13200 5850
	1    0    0    -1  
$EndComp
$Comp
L +3.3V #PWR070
U 1 1 5BC970D3
P 14600 3950
F 0 "#PWR070" H 14600 3800 50  0001 C CNN
F 1 "+3.3V" H 14600 4090 50  0000 C CNN
F 2 "" H 14600 3950 50  0000 C CNN
F 3 "" H 14600 3950 50  0000 C CNN
	1    14600 3950
	1    0    0    -1  
$EndComp
$Comp
L GND #PWR071
U 1 1 5BC970D9
P 15300 4700
F 0 "#PWR071" H 15300 4450 50  0001 C CNN
F 1 "GND" H 15300 4550 50  0000 C CNN
F 2 "" H 15300 4700 50  0000 C CNN
F 3 "" H 15300 4700 50  0000 C CNN
	1    15300 4700
	1    0    0    -1  
$EndComp
$Comp
L +3.3V #PWR072
U 1 1 5BC970DF
P 14600 5100
F 0 "#PWR072" H 14600 4950 50  0001 C CNN
F 1 "+3.3V" H 14600 5240 50  0000 C CNN
F 2 "" H 14600 5100 50  0000 C CNN
F 3 "" H 14600 5100 50  0000 C CNN
	1    14600 5100
	1    0    0    -1  
$EndComp
$Comp
L GND #PWR073
U 1 1 5BC970E5
P 15300 5850
F 0 "#PWR073" H 15300 5600 50  0001 C CNN
F 1 "GND" H 15300 5700 50  0000 C CNN
F 2 "" H 15300 5850 50  0000 C CNN
F 3 "" H 15300 5850 50  0000 C CNN
	1    15300 5850
	1    0    0    -1  
$EndComp
Text GLabel 12500 4150 0    51   Input ~ 0
PWMH5
Text GLabel 14600 4150 0    51   Input ~ 0
PWMH6
Text GLabel 12500 4250 0    51   Input ~ 0
PHASE5
Text GLabel 14600 4250 0    51   Input ~ 0
PHASE6
Text GLabel 12500 4350 0    51   Input ~ 0
RST5
NoConn ~ 13100 4350
NoConn ~ 13100 4450
Text GLabel 14600 4350 0    51   Input ~ 0
RST6
Text GLabel 12500 5500 0    51   Input ~ 0
RST7
Text GLabel 14600 5500 0    51   Input ~ 0
RST8
Text GLabel 12500 5300 0    51   Input ~ 0
PWMH7
Text GLabel 12500 5400 0    51   Input ~ 0
PHASE7
NoConn ~ 15200 4350
NoConn ~ 15200 4450
NoConn ~ 13100 5500
NoConn ~ 13100 5600
NoConn ~ 15200 5500
NoConn ~ 15200 5600
Text GLabel 14600 5300 0    51   Input ~ 0
PWMH8
Text GLabel 14600 5400 0    51   Input ~ 0
PHASE8
$Comp
L +3.3V #PWR074
U 1 1 5BC97103
P 13300 3950
F 0 "#PWR074" H 13300 3800 50  0001 C CNN
F 1 "+3.3V" H 13300 4090 50  0000 C CNN
F 2 "" H 13300 3950 50  0000 C CNN
F 3 "" H 13300 3950 50  0000 C CNN
	1    13300 3950
	1    0    0    -1  
$EndComp
$Comp
L +3.3V #PWR075
U 1 1 5BC97109
P 15400 3950
F 0 "#PWR075" H 15400 3800 50  0001 C CNN
F 1 "+3.3V" H 15400 4090 50  0000 C CNN
F 2 "" H 15400 3950 50  0000 C CNN
F 3 "" H 15400 3950 50  0000 C CNN
	1    15400 3950
	1    0    0    -1  
$EndComp
$Comp
L +3.3V #PWR076
U 1 1 5BC9710F
P 13300 5100
F 0 "#PWR076" H 13300 4950 50  0001 C CNN
F 1 "+3.3V" H 13300 5240 50  0000 C CNN
F 2 "" H 13300 5100 50  0000 C CNN
F 3 "" H 13300 5100 50  0000 C CNN
	1    13300 5100
	1    0    0    -1  
$EndComp
$Comp
L +3.3V #PWR077
U 1 1 5BC97115
P 15400 5100
F 0 "#PWR077" H 15400 4950 50  0001 C CNN
F 1 "+3.3V" H 15400 5240 50  0000 C CNN
F 2 "" H 15400 5100 50  0000 C CNN
F 3 "" H 15400 5100 50  0000 C CNN
	1    15400 5100
	1    0    0    -1  
$EndComp
$Comp
L R R31
U 1 1 5BC971B6
P 13300 5600
F 0 "R31" V 13380 5600 50  0000 C CNN
F 1 "10k" V 13300 5600 50  0000 C CNN
F 2 "MyKicadFP:1608" V 13230 5600 50  0001 C CNN
F 3 "" H 13300 5600 50  0000 C CNN
	1    13300 5600
	1    0    0    -1  
$EndComp
$Comp
L R R40
U 1 1 5BC971BD
P 15400 4450
F 0 "R40" V 15480 4450 50  0000 C CNN
F 1 "10k" V 15400 4450 50  0000 C CNN
F 2 "MyKicadFP:1608" V 15330 4450 50  0001 C CNN
F 3 "" H 15400 4450 50  0000 C CNN
	1    15400 4450
	1    0    0    -1  
$EndComp
$Comp
L R R41
U 1 1 5BC971C4
P 15400 5600
F 0 "R41" V 15480 5600 50  0000 C CNN
F 1 "10k" V 15400 5600 50  0000 C CNN
F 2 "MyKicadFP:1608" V 15330 5600 50  0001 C CNN
F 3 "" H 15400 5600 50  0000 C CNN
	1    15400 5600
	1    0    0    -1  
$EndComp
Text GLabel 5650 1300 2    51   Output ~ 0
PWMH7
Text GLabel 4450 1300 0    51   Output ~ 0
PWMH8
Text GLabel 5650 2000 2    51   Output ~ 0
PHASE7
Text GLabel 5650 2100 2    51   Output ~ 0
RST7
$Comp
L C C1
U 1 1 5BCBB03C
P 1000 9250
F 0 "C1" H 1025 9350 50  0000 L CNN
F 1 "0.1u" H 1025 9150 50  0000 L CNN
F 2 "MyKicadFP:1608" H 1038 9100 50  0001 C CNN
F 3 "" H 1000 9250 50  0000 C CNN
	1    1000 9250
	1    0    0    -1  
$EndComp
$Comp
L GND #PWR078
U 1 1 5BCBB042
P 1000 9600
F 0 "#PWR078" H 1000 9350 50  0001 C CNN
F 1 "GND" H 1000 9450 50  0000 C CNN
F 2 "" H 1000 9600 50  0000 C CNN
F 3 "" H 1000 9600 50  0000 C CNN
	1    1000 9600
	1    0    0    -1  
$EndComp
$Comp
L +3.3V #PWR079
U 1 1 5BCBB048
P 1000 8900
F 0 "#PWR079" H 1000 8750 50  0001 C CNN
F 1 "+3.3V" H 1000 9040 50  0000 C CNN
F 2 "" H 1000 8900 50  0000 C CNN
F 3 "" H 1000 8900 50  0000 C CNN
	1    1000 8900
	1    0    0    -1  
$EndComp
$Comp
L C C6
U 1 1 5BCC78FC
P 6350 4900
F 0 "C6" H 6375 5000 50  0000 L CNN
F 1 "0.1u" H 6375 4800 50  0000 L CNN
F 2 "MyKicadFP:1608" H 6388 4750 50  0001 C CNN
F 3 "" H 6350 4900 50  0000 C CNN
	1    6350 4900
	1    0    0    -1  
$EndComp
$Comp
L GND #PWR080
U 1 1 5BCC7902
P 6350 5250
F 0 "#PWR080" H 6350 5000 50  0001 C CNN
F 1 "GND" H 6350 5100 50  0000 C CNN
F 2 "" H 6350 5250 50  0000 C CNN
F 3 "" H 6350 5250 50  0000 C CNN
	1    6350 5250
	1    0    0    -1  
$EndComp
$Comp
L +3.3V #PWR081
U 1 1 5BCC7908
P 6350 4550
F 0 "#PWR081" H 6350 4400 50  0001 C CNN
F 1 "+3.3V" H 6350 4690 50  0000 C CNN
F 2 "" H 6350 4550 50  0000 C CNN
F 3 "" H 6350 4550 50  0000 C CNN
	1    6350 4550
	1    0    0    -1  
$EndComp
$Comp
L C C2
U 1 1 5BCE20B2
P 1250 9250
F 0 "C2" H 1275 9350 50  0000 L CNN
F 1 "0.1u" H 1275 9150 50  0000 L CNN
F 2 "MyKicadFP:1608" H 1288 9100 50  0001 C CNN
F 3 "" H 1250 9250 50  0000 C CNN
	1    1250 9250
	1    0    0    -1  
$EndComp
$Comp
L C C13
U 1 1 5BCF01C4
P 9600 7100
F 0 "C13" H 9625 7200 50  0000 L CNN
F 1 "0.1u" H 9625 7000 50  0000 L CNN
F 2 "MyKicadFP:1608" H 9638 6950 50  0001 C CNN
F 3 "" H 9600 7100 50  0000 C CNN
	1    9600 7100
	1    0    0    -1  
$EndComp
$Comp
L C C17
U 1 1 5BCF2756
P 10300 6450
F 0 "C17" H 10325 6550 50  0000 L CNN
F 1 "0.1u" H 10325 6350 50  0000 L CNN
F 2 "MyKicadFP:1608" H 10338 6300 50  0001 C CNN
F 3 "" H 10300 6450 50  0000 C CNN
	1    10300 6450
	1    0    0    -1  
$EndComp
$Comp
L GND #PWR082
U 1 1 5BCF4F8E
P 10300 6650
F 0 "#PWR082" H 10300 6400 50  0001 C CNN
F 1 "GND" H 10300 6500 50  0000 C CNN
F 2 "" H 10300 6650 50  0000 C CNN
F 3 "" H 10300 6650 50  0000 C CNN
	1    10300 6650
	1    0    0    -1  
$EndComp
$Comp
L GND #PWR083
U 1 1 5BD30A94
P 1300 4000
F 0 "#PWR083" H 1300 3750 50  0001 C CNN
F 1 "GND" H 1300 3850 50  0000 C CNN
F 2 "" H 1300 4000 50  0000 C CNN
F 3 "" H 1300 4000 50  0000 C CNN
	1    1300 4000
	1    0    0    -1  
$EndComp
Text GLabel 3050 3400 2    51   BiDi ~ 0
PG3
Text GLabel 3050 3300 2    51   BiDi ~ 0
PG2
Text GLabel 3050 3200 2    51   BiDi ~ 0
PD3
Text GLabel 3050 3500 2    51   BiDi ~ 0
PE2
Text GLabel 3050 3600 2    51   BiDi ~ 0
PE4
NoConn ~ 2950 4600
NoConn ~ 2950 4700
NoConn ~ 2950 2700
NoConn ~ 2950 3000
NoConn ~ 4550 2000
NoConn ~ 5550 1500
NoConn ~ 5550 2700
NoConn ~ 5550 2900
NoConn ~ 4550 3000
NoConn ~ 1950 2300
NoConn ~ 1950 2400
Text GLabel 5650 3400 2    51   BiDi ~ 0
PE7
NoConn ~ 2950 2900
$Comp
L R R26
U 1 1 5BE1A6B2
P 9450 6150
F 0 "R26" V 9530 6150 50  0000 C CNN
F 1 "2.2k" V 9450 6150 50  0000 C CNN
F 2 "MyKicadFP:1608" V 9380 6150 50  0001 C CNN
F 3 "" H 9450 6150 50  0000 C CNN
	1    9450 6150
	-1   0    0    1   
$EndComp
$Comp
L Nucleo-F767ZI_Morpho U1
U 1 1 5BCBF74E
P 3750 3050
F 0 "U1" H 3750 5150 60  0000 C CNN
F 1 "Nucleo-F767ZI_Morpho" H 3750 5050 60  0000 C CNN
F 2 "MyKicadFP:Nucleo-F767ZI_Morpho" H 2450 3000 60  0001 C CNN
F 3 "" H 2450 3000 60  0000 C CNN
	1    3750 3050
	1    0    0    -1  
$EndComp
$Comp
L PWR_FLAG #FLG084
U 1 1 5BCC2A5F
P 4500 6100
F 0 "#FLG084" H 4500 6195 50  0001 C CNN
F 1 "PWR_FLAG" H 4500 6280 50  0000 C CNN
F 2 "" H 4500 6100 50  0000 C CNN
F 3 "" H 4500 6100 50  0000 C CNN
	1    4500 6100
	1    0    0    -1  
$EndComp
$Comp
L PWR_FLAG #FLG085
U 1 1 5BCC4D79
P 7000 6100
F 0 "#FLG085" H 7000 6195 50  0001 C CNN
F 1 "PWR_FLAG" H 7000 6280 50  0000 C CNN
F 2 "" H 7000 6100 50  0000 C CNN
F 3 "" H 7000 6100 50  0000 C CNN
	1    7000 6100
	1    0    0    -1  
$EndComp
$Comp
L PWR_FLAG #FLG086
U 1 1 5BCC6620
P 8500 6100
F 0 "#FLG086" H 8500 6195 50  0001 C CNN
F 1 "PWR_FLAG" H 8500 6280 50  0000 C CNN
F 2 "" H 8500 6100 50  0000 C CNN
F 3 "" H 8500 6100 50  0000 C CNN
	1    8500 6100
	1    0    0    -1  
$EndComp
$Comp
L PWR_FLAG #FLG087
U 1 1 5BCC8C1A
P 900 7700
F 0 "#FLG087" H 900 7795 50  0001 C CNN
F 1 "PWR_FLAG" H 900 7880 50  0000 C CNN
F 2 "" H 900 7700 50  0000 C CNN
F 3 "" H 900 7700 50  0000 C CNN
	1    900  7700
	-1   0    0    1   
$EndComp
Text GLabel 1850 1800 0    51   BiDi ~ 0
PF7
Text GLabel 4450 1400 0    51   Output ~ 0
PHASE8
Text GLabel 4450 1500 0    51   Output ~ 0
RST8
Text GLabel 1850 4600 0    51   BiDi ~ 0
PH2
$Comp
L CONN_01X06 P3
U 1 1 5BCFD3B8
P 9900 6600
F 0 "P3" H 9900 6950 50  0000 C CNN
F 1 "CONN_01X06" V 10000 6600 50  0000 C CNN
F 2 "Connectors_JST:JST_XH_B06B-XH-A_06x2.50mm_Straight" H 9900 6600 50  0001 C CNN
F 3 "" H 9900 6600 50  0000 C CNN
	1    9900 6600
	1    0    0    -1  
$EndComp
$Comp
L Q_NMOS_GSD Q1
U 1 1 5BD2B342
P 1900 10050
F 0 "Q1" H 2200 10100 50  0000 R CNN
F 1 "Q_NMOS_GSD" H 2550 10000 50  0000 R CNN
F 2 "MyKicadFP:My_SOT-23" H 2100 10150 50  0001 C CNN
F 3 "" H 1900 10050 50  0000 C CNN
	1    1900 10050
	1    0    0    -1  
$EndComp
$Comp
L GND #PWR088
U 1 1 5BDDC651
P 8350 1750
F 0 "#PWR088" H 8350 1500 50  0001 C CNN
F 1 "GND" H 8350 1600 50  0000 C CNN
F 2 "" H 8350 1750 50  0000 C CNN
F 3 "" H 8350 1750 50  0000 C CNN
	1    8350 1750
	1    0    0    -1  
$EndComp
$Comp
L +3.3V #PWR089
U 1 1 5BDD6C71
P 7950 1250
F 0 "#PWR089" H 7950 1100 50  0001 C CNN
F 1 "+3.3V" H 7950 1390 50  0000 C CNN
F 2 "" H 7950 1250 50  0000 C CNN
F 3 "" H 7950 1250 50  0000 C CNN
	1    7950 1250
	1    0    0    -1  
$EndComp
$Comp
L +5V #PWR090
U 1 1 5BDD5A52
P 7050 1250
F 0 "#PWR090" H 7050 1100 50  0001 C CNN
F 1 "+5V" H 7050 1390 50  0000 C CNN
F 2 "" H 7050 1250 50  0000 C CNN
F 3 "" H 7050 1250 50  0000 C CNN
	1    7050 1250
	1    0    0    -1  
$EndComp
$Comp
L +12V #PWR091
U 1 1 5BDD50C4
P 7250 1250
F 0 "#PWR091" H 7250 1100 50  0001 C CNN
F 1 "+12V" H 7250 1390 50  0000 C CNN
F 2 "" H 7250 1250 50  0000 C CNN
F 3 "" H 7250 1250 50  0000 C CNN
	1    7250 1250
	1    0    0    -1  
$EndComp
$Comp
L CP C21
U 1 1 5BCD62D8
P 1600 6950
F 0 "C21" H 1625 7050 50  0000 L CNN
F 1 "100u" H 1625 6850 50  0000 L CNN
F 2 "MyKicadFP:My_AlumiCapa_6.3mm" H 1638 6800 50  0001 C CNN
F 3 "" H 1600 6950 50  0000 C CNN
	1    1600 6950
	1    0    0    -1  
$EndComp
$Comp
L CONN_01X02 P5
U 1 1 5BCF5091
P 850 5950
F 0 "P5" H 850 6100 50  0000 C CNN
F 1 "12V CON" V 950 5950 50  0000 C CNN
F 2 "MyKicadFP:TB111-2-2-U-1-1" H 850 5950 50  0001 C CNN
F 3 "" H 850 5950 50  0000 C CNN
	1    850  5950
	-1   0    0    1   
$EndComp
$Comp
L CONN_01X02 P21
U 1 1 5BCF7A29
P 850 6750
F 0 "P21" H 850 6900 50  0000 C CNN
F 1 "12V CON" V 950 6750 50  0000 C CNN
F 2 "Connectors_JST:JST_XH_B02B-XH-A_02x2.50mm_Straight" H 850 6750 50  0001 C CNN
F 3 "" H 850 6750 50  0000 C CNN
	1    850  6750
	-1   0    0    -1  
$EndComp
$Comp
L R R45
U 1 1 5BCDAC04
P 6200 7050
F 0 "R45" V 6280 7050 50  0000 C CNN
F 1 "330" V 6200 7050 50  0000 C CNN
F 2 "MyKicadFP:1608" V 6130 7050 50  0001 C CNN
F 3 "" H 6200 7050 50  0000 C CNN
	1    6200 7050
	1    0    0    -1  
$EndComp
$Comp
L R R17
U 1 1 5BCDBF8F
P 6200 6700
F 0 "R17" V 6280 6700 50  0000 C CNN
F 1 "1k" V 6200 6700 50  0000 C CNN
F 2 "MyKicadFP:1608" V 6130 6700 50  0001 C CNN
F 3 "" H 6200 6700 50  0000 C CNN
	1    6200 6700
	1    0    0    -1  
$EndComp
NoConn ~ 12600 1600
NoConn ~ 14700 1600
$Comp
L C C18
U 1 1 5BCECD35
P 11950 1400
F 0 "C18" H 11975 1500 50  0000 L CNN
F 1 "0.1u" H 11975 1300 50  0000 L CNN
F 2 "MyKicadFP:1608" H 11988 1250 50  0001 C CNN
F 3 "" H 11950 1400 50  0000 C CNN
	1    11950 1400
	1    0    0    -1  
$EndComp
$Comp
L GND #PWR092
U 1 1 5BCED548
P 11950 1600
F 0 "#PWR092" H 11950 1350 50  0001 C CNN
F 1 "GND" H 11950 1450 50  0000 C CNN
F 2 "" H 11950 1600 50  0000 C CNN
F 3 "" H 11950 1600 50  0000 C CNN
	1    11950 1600
	1    0    0    -1  
$EndComp
$Comp
L C C24
U 1 1 5BCF015B
P 14050 1400
F 0 "C24" H 14075 1500 50  0000 L CNN
F 1 "0.1u" H 14075 1300 50  0000 L CNN
F 2 "MyKicadFP:1608" H 14088 1250 50  0001 C CNN
F 3 "" H 14050 1400 50  0000 C CNN
	1    14050 1400
	1    0    0    -1  
$EndComp
$Comp
L GND #PWR093
U 1 1 5BCF0630
P 14050 1600
F 0 "#PWR093" H 14050 1350 50  0001 C CNN
F 1 "GND" H 14050 1450 50  0000 C CNN
F 2 "" H 14050 1600 50  0000 C CNN
F 3 "" H 14050 1600 50  0000 C CNN
	1    14050 1600
	1    0    0    -1  
$EndComp
NoConn ~ 12600 2750
NoConn ~ 14700 2750
$Comp
L C C19
U 1 1 5BD0555C
P 11950 2550
F 0 "C19" H 11975 2650 50  0000 L CNN
F 1 "0.1u" H 11975 2450 50  0000 L CNN
F 2 "MyKicadFP:1608" H 11988 2400 50  0001 C CNN
F 3 "" H 11950 2550 50  0000 C CNN
	1    11950 2550
	1    0    0    -1  
$EndComp
$Comp
L GND #PWR094
U 1 1 5BD0731E
P 11950 2750
F 0 "#PWR094" H 11950 2500 50  0001 C CNN
F 1 "GND" H 11950 2600 50  0000 C CNN
F 2 "" H 11950 2750 50  0000 C CNN
F 3 "" H 11950 2750 50  0000 C CNN
	1    11950 2750
	1    0    0    -1  
$EndComp
$Comp
L C C25
U 1 1 5BD08909
P 14050 2550
F 0 "C25" H 14075 2650 50  0000 L CNN
F 1 "0.1u" H 14075 2450 50  0000 L CNN
F 2 "MyKicadFP:1608" H 14088 2400 50  0001 C CNN
F 3 "" H 14050 2550 50  0000 C CNN
	1    14050 2550
	1    0    0    -1  
$EndComp
$Comp
L GND #PWR095
U 1 1 5BD09E74
P 14050 2750
F 0 "#PWR095" H 14050 2500 50  0001 C CNN
F 1 "GND" H 14050 2600 50  0000 C CNN
F 2 "" H 14050 2750 50  0000 C CNN
F 3 "" H 14050 2750 50  0000 C CNN
	1    14050 2750
	1    0    0    -1  
$EndComp
NoConn ~ 12600 4450
$Comp
L C C22
U 1 1 5BD16121
P 11950 4250
F 0 "C22" H 11975 4350 50  0000 L CNN
F 1 "0.1u" H 11975 4150 50  0000 L CNN
F 2 "MyKicadFP:1608" H 11988 4100 50  0001 C CNN
F 3 "" H 11950 4250 50  0000 C CNN
	1    11950 4250
	1    0    0    -1  
$EndComp
$Comp
L GND #PWR096
U 1 1 5BD17CCD
P 11950 4450
F 0 "#PWR096" H 11950 4200 50  0001 C CNN
F 1 "GND" H 11950 4300 50  0000 C CNN
F 2 "" H 11950 4450 50  0000 C CNN
F 3 "" H 11950 4450 50  0000 C CNN
	1    11950 4450
	1    0    0    -1  
$EndComp
NoConn ~ 14700 4450
$Comp
L C C26
U 1 1 5BD1FE3D
P 14050 4250
F 0 "C26" H 14075 4350 50  0000 L CNN
F 1 "0.1u" H 14075 4150 50  0000 L CNN
F 2 "MyKicadFP:1608" H 14088 4100 50  0001 C CNN
F 3 "" H 14050 4250 50  0000 C CNN
	1    14050 4250
	1    0    0    -1  
$EndComp
$Comp
L GND #PWR097
U 1 1 5BD206F6
P 14050 4450
F 0 "#PWR097" H 14050 4200 50  0001 C CNN
F 1 "GND" H 14050 4300 50  0000 C CNN
F 2 "" H 14050 4450 50  0000 C CNN
F 3 "" H 14050 4450 50  0000 C CNN
	1    14050 4450
	1    0    0    -1  
$EndComp
NoConn ~ 12600 5600
$Comp
L C C23
U 1 1 5BD27E8E
P 11950 5400
F 0 "C23" H 11975 5500 50  0000 L CNN
F 1 "0.1u" H 11975 5300 50  0000 L CNN
F 2 "MyKicadFP:1608" H 11988 5250 50  0001 C CNN
F 3 "" H 11950 5400 50  0000 C CNN
	1    11950 5400
	1    0    0    -1  
$EndComp
$Comp
L GND #PWR098
U 1 1 5BD28BE7
P 11950 5600
F 0 "#PWR098" H 11950 5350 50  0001 C CNN
F 1 "GND" H 11950 5450 50  0000 C CNN
F 2 "" H 11950 5600 50  0000 C CNN
F 3 "" H 11950 5600 50  0000 C CNN
	1    11950 5600
	1    0    0    -1  
$EndComp
NoConn ~ 14700 5600
$Comp
L C C27
U 1 1 5BD2FF7F
P 14050 5400
F 0 "C27" H 14075 5500 50  0000 L CNN
F 1 "0.1u" H 14075 5300 50  0000 L CNN
F 2 "MyKicadFP:1608" H 14088 5250 50  0001 C CNN
F 3 "" H 14050 5400 50  0000 C CNN
	1    14050 5400
	1    0    0    -1  
$EndComp
$Comp
L GND #PWR099
U 1 1 5BD30CBB
P 14050 5600
F 0 "#PWR099" H 14050 5350 50  0001 C CNN
F 1 "GND" H 14050 5450 50  0000 C CNN
F 2 "" H 14050 5600 50  0000 C CNN
F 3 "" H 14050 5600 50  0000 C CNN
	1    14050 5600
	1    0    0    -1  
$EndComp
$Comp
L R R30
U 1 1 5BC97163
P 13300 4450
F 0 "R30" V 13380 4450 50  0000 C CNN
F 1 "10k" V 13300 4450 50  0000 C CNN
F 2 "MyKicadFP:1608" V 13230 4450 50  0001 C CNN
F 3 "" H 13300 4450 50  0000 C CNN
	1    13300 4450
	1    0    0    -1  
$EndComp
$Comp
L CONN_02X13 P2
U 1 1 5BD5962F
P 7600 1950
F 0 "P2" H 7600 2650 50  0000 C CNN
F 1 "CONN_02X13" V 7600 1950 50  0000 C CNN
F 2 "BoxHeader:IDC-Header_2x13_P2.54mm_Vertical" H 7600 800 50  0001 C CNN
F 3 "" H 7600 800 50  0000 C CNN
	1    7600 1950
	1    0    0    -1  
$EndComp
$Comp
L CONN_02X13 P4
U 1 1 5BD5A6A2
P 7600 3650
F 0 "P4" H 7600 4350 50  0000 C CNN
F 1 "CONN_02X13" V 7600 3650 50  0000 C CNN
F 2 "BoxHeader:IDC-Header_2x13_P2.54mm_Vertical" H 7600 2500 50  0001 C CNN
F 3 "" H 7600 2500 50  0000 C CNN
	1    7600 3650
	1    0    0    -1  
$EndComp
$Comp
L C C28
U 1 1 5BD6DDBB
P 15000 8950
F 0 "C28" H 15025 9050 50  0000 L CNN
F 1 "0.1u" H 15025 8850 50  0000 L CNN
F 2 "MyKicadFP:1608" H 15038 8800 50  0001 C CNN
F 3 "" H 15000 8950 50  0000 C CNN
	1    15000 8950
	1    0    0    -1  
$EndComp
$Comp
L +5V #PWR0100
U 1 1 5BD6DEBF
P 15000 8700
F 0 "#PWR0100" H 15000 8550 50  0001 C CNN
F 1 "+5V" H 15000 8840 50  0000 C CNN
F 2 "" H 15000 8700 50  0000 C CNN
F 3 "" H 15000 8700 50  0000 C CNN
	1    15000 8700
	1    0    0    -1  
$EndComp
$Comp
L GND #PWR0101
U 1 1 5BD6E030
P 15000 9200
F 0 "#PWR0101" H 15000 8950 50  0001 C CNN
F 1 "GND" H 15000 9050 50  0000 C CNN
F 2 "" H 15000 9200 50  0000 C CNN
F 3 "" H 15000 9200 50  0000 C CNN
	1    15000 9200
	1    0    0    -1  
$EndComp
Text GLabel 1850 4000 0    51   BiDi ~ 0
PD1
Text GLabel 1850 4100 0    51   BiDi ~ 0
PD0
Text GLabel 1850 4200 0    51   BiDi ~ 0
PG0
Text GLabel 1850 4300 0    51   BiDi ~ 0
PE1
Text GLabel 1850 4400 0    51   BiDi ~ 0
PG9
Text GLabel 1850 4500 0    51   BiDi ~ 0
PG12
Text GLabel 3050 4100 2    51   BiDi ~ 0
PG1
Text GLabel 3050 3800 2    51   BiDi ~ 0
PF2
Text GLabel 3050 4400 2    51   BiDi ~ 0
PG15
Text GLabel 3050 4500 2    51   BiDi ~ 0
PG10
Text GLabel 7950 3750 2    51   BiDi ~ 0
PH2
Text GLabel 7250 2450 0    51   BiDi ~ 0
PD1
Text GLabel 7950 2450 2    51   BiDi ~ 0
PD0
Text GLabel 7950 2550 2    51   BiDi ~ 0
PG0
Text GLabel 7950 3450 2    51   BiDi ~ 0
PE1
Text GLabel 7950 3550 2    51   BiDi ~ 0
PG9
Text GLabel 7950 3650 2    51   BiDi ~ 0
PG12
$Comp
L +5V #PWR0102
U 1 1 5BD89EDA
P 7050 2950
F 0 "#PWR0102" H 7050 2800 50  0001 C CNN
F 1 "+5V" H 7050 3090 50  0000 C CNN
F 2 "" H 7050 2950 50  0000 C CNN
F 3 "" H 7050 2950 50  0000 C CNN
	1    7050 2950
	1    0    0    -1  
$EndComp
$Comp
L +12V #PWR0103
U 1 1 5BD8B421
P 7250 2950
F 0 "#PWR0103" H 7250 2800 50  0001 C CNN
F 1 "+12V" H 7250 3090 50  0000 C CNN
F 2 "" H 7250 2950 50  0000 C CNN
F 3 "" H 7250 2950 50  0000 C CNN
	1    7250 2950
	1    0    0    -1  
$EndComp
$Comp
L +3.3V #PWR0104
U 1 1 5BD8DA64
P 7950 2950
F 0 "#PWR0104" H 7950 2800 50  0001 C CNN
F 1 "+3.3V" H 7950 3090 50  0000 C CNN
F 2 "" H 7950 2950 50  0000 C CNN
F 3 "" H 7950 2950 50  0000 C CNN
	1    7950 2950
	1    0    0    -1  
$EndComp
Text GLabel 7950 1850 2    51   BiDi ~ 0
PC2
Text GLabel 7250 1950 0    51   BiDi ~ 0
PC3
Text GLabel 7250 3650 0    51   BiDi ~ 0
PG10
Text GLabel 7250 3550 0    51   BiDi ~ 0
PG15
Text GLabel 7250 3450 0    51   BiDi ~ 0
PE6
Text GLabel 7250 2550 0    51   BiDi ~ 0
PG1
Text GLabel 7950 2350 2    51   BiDi ~ 0
PF8
Text GLabel 7250 2350 0    51   BiDi ~ 0
PF2
Text GLabel 7950 2250 2    51   BiDi ~ 0
PE5
Text GLabel 7950 3950 2    51   BiDi ~ 0
PB1
Text GLabel 7250 3850 0    51   BiDi ~ 0
PB2
Text GLabel 7250 3750 0    51   BiDi ~ 0
PA5
Text GLabel 7950 3850 2    51   BiDi ~ 0
PA6
Text GLabel 7250 3950 0    51   BiDi ~ 0
PB15
$Comp
L GND #PWR0105
U 1 1 5BDC38D8
P 8350 3450
F 0 "#PWR0105" H 8350 3200 50  0001 C CNN
F 1 "GND" H 8350 3300 50  0000 C CNN
F 2 "" H 8350 3450 50  0000 C CNN
F 3 "" H 8350 3450 50  0000 C CNN
	1    8350 3450
	1    0    0    -1  
$EndComp
Text GLabel 7250 2250 0    51   BiDi ~ 0
PE4
Text GLabel 7950 2150 2    51   BiDi ~ 0
PE2
Text GLabel 7250 2150 0    51   BiDi ~ 0
PG3
Text GLabel 7950 2050 2    51   BiDi ~ 0
PG2
Text GLabel 7250 2050 0    51   BiDi ~ 0
PD3
Text GLabel 7950 1950 2    51   BiDi ~ 0
PC0
Text GLabel 7250 1850 0    51   BiDi ~ 0
PA4
NoConn ~ 5550 3200
Text GLabel 7250 1750 0    51   BiDi ~ 0
PF6
Text GLabel 7950 1750 2    51   BiDi ~ 0
PF7
Text GLabel 7250 4250 0    51   BiDi ~ 0
PF11
Text GLabel 7950 4250 2    51   BiDi ~ 0
PE7
Text GLabel 7250 4150 0    51   BiDi ~ 0
PF10
Text GLabel 7950 4150 2    51   BiDi ~ 0
PF4
Text GLabel 7250 4050 0    51   BiDi ~ 0
PF5
Text GLabel 7950 4050 2    51   BiDi ~ 0
PB14
$Comp
L C C9
U 1 1 5BCC925D
P 7100 4900
F 0 "C9" H 7125 5000 50  0000 L CNN
F 1 "0.1u" H 7125 4800 50  0000 L CNN
F 2 "MyKicadFP:1608" H 7138 4750 50  0001 C CNN
F 3 "" H 7100 4900 50  0000 C CNN
	1    7100 4900
	1    0    0    -1  
$EndComp
$Comp
L +5V #PWR?
U 1 1 5BD888E4
P 7100 4550
F 0 "#PWR?" H 7100 4400 50  0001 C CNN
F 1 "+5V" H 7100 4690 50  0000 C CNN
F 2 "" H 7100 4550 50  0000 C CNN
F 3 "" H 7100 4550 50  0000 C CNN
	1    7100 4550
	1    0    0    -1  
$EndComp
$Comp
L GND #PWR?
U 1 1 5BD88DCD
P 7100 5250
F 0 "#PWR?" H 7100 5000 50  0001 C CNN
F 1 "GND" H 7100 5100 50  0000 C CNN
F 2 "" H 7100 5250 50  0000 C CNN
F 3 "" H 7100 5250 50  0000 C CNN
	1    7100 5250
	1    0    0    -1  
$EndComp
Wire Wire Line
	10650 5050 11000 5050
Wire Wire Line
	10650 4950 11000 4950
Wire Wire Line
	3750 1600 3750 1500
Wire Wire Line
	4550 1600 4050 1600
Wire Wire Line
	7850 1850 7950 1850
Wire Wire Line
	7950 1750 7850 1750
Wire Wire Line
	8350 3250 8350 3450
Wire Wire Line
	7250 3750 7350 3750
Wire Wire Line
	7250 3850 7350 3850
Wire Wire Line
	7250 3950 7350 3950
Wire Wire Line
	7250 4050 7350 4050
Wire Wire Line
	7250 4150 7350 4150
Wire Wire Line
	7250 4250 7350 4250
Wire Wire Line
	7950 4250 7850 4250
Wire Wire Line
	7950 4050 7850 4050
Wire Wire Line
	7850 3950 7950 3950
Wire Wire Line
	7950 3850 7850 3850
Wire Wire Line
	7850 3750 7950 3750
Wire Wire Line
	7950 3650 7850 3650
Wire Wire Line
	7850 3550 7950 3550
Wire Wire Line
	7950 3450 7850 3450
Wire Wire Line
	7950 1950 7850 1950
Wire Wire Line
	7950 2050 7850 2050
Wire Wire Line
	7950 2150 7850 2150
Wire Wire Line
	7950 2250 7850 2250
Wire Wire Line
	7850 2450 7950 2450
Wire Wire Line
	7950 2350 7850 2350
Wire Wire Line
	7250 1950 7350 1950
Wire Wire Line
	7250 2050 7350 2050
Wire Wire Line
	7250 2150 7350 2150
Wire Wire Line
	7250 2250 7350 2250
Wire Wire Line
	7250 1850 7350 1850
Wire Wire Line
	7250 1750 7350 1750
Wire Wire Line
	7950 2950 7950 3150
Wire Wire Line
	7250 2950 7250 3150
Wire Wire Line
	7050 2950 7050 3350
Wire Wire Line
	7950 1250 7950 1450
Wire Wire Line
	7050 1250 7050 1650
Wire Wire Line
	7250 1250 7250 1450
Wire Wire Line
	7250 2350 7350 2350
Wire Wire Line
	2950 4400 3050 4400
Wire Wire Line
	3050 4500 2950 4500
Wire Wire Line
	3050 3800 2950 3800
Wire Wire Line
	3050 4100 2950 4100
Wire Wire Line
	1850 4500 1950 4500
Wire Wire Line
	1950 4400 1850 4400
Wire Wire Line
	1850 4300 1950 4300
Wire Wire Line
	1950 4200 1850 4200
Wire Wire Line
	1850 4100 1950 4100
Wire Wire Line
	1950 4000 1850 4000
Wire Wire Line
	5650 3700 5550 3700
Wire Wire Line
	4450 3900 4550 3900
Wire Wire Line
	4450 3600 4550 3600
Wire Wire Line
	4450 3700 4550 3700
Wire Wire Line
	5650 3500 5550 3500
Wire Wire Line
	5650 3600 5550 3600
Wire Wire Line
	15000 8800 15000 8700
Wire Wire Line
	15000 9200 15000 9100
Wire Wire Line
	15400 5400 15400 5450
Wire Wire Line
	15200 5400 15400 5400
Connection ~ 15300 5800
Wire Wire Line
	15400 5800 15400 5750
Wire Wire Line
	15300 5800 15400 5800
Wire Wire Line
	13300 5400 13300 5450
Wire Wire Line
	13100 5400 13300 5400
Connection ~ 13200 5800
Wire Wire Line
	13300 5800 13300 5750
Wire Wire Line
	13200 5800 13300 5800
Wire Wire Line
	15400 4250 15200 4250
Wire Wire Line
	15400 4300 15400 4250
Connection ~ 15300 4650
Wire Wire Line
	15400 4650 15400 4600
Wire Wire Line
	15300 4650 15400 4650
Wire Wire Line
	13300 4250 13300 4300
Wire Wire Line
	13100 4250 13300 4250
Connection ~ 13200 4650
Wire Wire Line
	13300 4650 13300 4600
Wire Wire Line
	13200 4650 13300 4650
Wire Wire Line
	15400 2550 15400 2600
Wire Wire Line
	15200 2550 15400 2550
Connection ~ 15300 2950
Wire Wire Line
	15400 2950 15400 2900
Wire Wire Line
	15300 2950 15400 2950
Wire Wire Line
	13300 2550 13300 2600
Wire Wire Line
	13100 2550 13300 2550
Connection ~ 13200 2950
Wire Wire Line
	13300 2950 13300 2900
Wire Wire Line
	13200 2950 13300 2950
Wire Wire Line
	13300 1400 13300 1450
Wire Wire Line
	13100 1400 13300 1400
Connection ~ 13200 1800
Wire Wire Line
	13300 1800 13200 1800
Wire Wire Line
	13300 1750 13300 1800
Wire Wire Line
	15400 1400 15400 1450
Wire Wire Line
	15200 1400 15400 1400
Connection ~ 15300 1800
Wire Wire Line
	15400 1800 15400 1750
Wire Wire Line
	15300 1800 15400 1800
Wire Wire Line
	4550 4600 4450 4600
Wire Wire Line
	4450 4700 4550 4700
Wire Wire Line
	4450 4100 4550 4100
Wire Wire Line
	4550 4200 4450 4200
Wire Wire Line
	4450 4300 4550 4300
Wire Wire Line
	4550 4500 4450 4500
Wire Wire Line
	4450 4000 4550 4000
Connection ~ 14600 5200
Wire Wire Line
	14050 5250 14050 5200
Wire Wire Line
	14050 5600 14050 5550
Wire Wire Line
	14600 5500 14700 5500
Wire Wire Line
	14700 5400 14600 5400
Wire Wire Line
	11950 5600 11950 5550
Connection ~ 12500 5200
Wire Wire Line
	11950 5250 11950 5200
Wire Wire Line
	12500 5500 12600 5500
Wire Wire Line
	12600 5400 12500 5400
Wire Wire Line
	14050 4450 14050 4400
Connection ~ 14600 4050
Wire Wire Line
	14050 4050 14050 4100
Wire Wire Line
	14600 4350 14700 4350
Wire Wire Line
	14600 4250 14700 4250
Wire Wire Line
	11950 4450 11950 4400
Connection ~ 12500 4050
Wire Wire Line
	11950 4100 11950 4050
Wire Wire Line
	12600 4250 12500 4250
Wire Wire Line
	12500 4350 12600 4350
Wire Wire Line
	12500 4150 12600 4150
Wire Wire Line
	14050 2750 14050 2700
Connection ~ 14600 2350
Wire Wire Line
	14050 2400 14050 2350
Wire Wire Line
	11950 2750 11950 2700
Connection ~ 12500 2350
Wire Wire Line
	11950 2400 11950 2350
Wire Wire Line
	14600 2550 14700 2550
Wire Wire Line
	14700 2650 14600 2650
Wire Wire Line
	12500 2550 12600 2550
Wire Wire Line
	12500 2650 12600 2650
Wire Wire Line
	14050 1600 14050 1550
Connection ~ 14600 1200
Wire Wire Line
	14050 1250 14050 1200
Connection ~ 12500 1200
Wire Wire Line
	11950 1200 11950 1250
Wire Wire Line
	11950 1600 11950 1550
Wire Wire Line
	14700 1500 14600 1500
Wire Wire Line
	14600 1400 14700 1400
Wire Wire Line
	12500 1500 12600 1500
Wire Wire Line
	12500 1400 12600 1400
Wire Wire Line
	6200 6900 6200 6850
Wire Wire Line
	6200 6550 6200 6500
Connection ~ 1150 6800
Wire Wire Line
	1150 6800 1050 6800
Wire Wire Line
	1250 6700 1050 6700
Connection ~ 1250 6300
Wire Wire Line
	1250 5900 1250 6700
Wire Wire Line
	1050 5900 1250 5900
Connection ~ 1150 6400
Wire Wire Line
	1050 6000 1150 6000
Connection ~ 8350 3350
Connection ~ 7950 3050
Connection ~ 7050 3250
Connection ~ 7250 3050
Wire Wire Line
	7250 3150 7350 3150
Wire Wire Line
	7250 3050 7350 3050
Connection ~ 1600 7600
Wire Wire Line
	1600 7600 1600 7100
Connection ~ 1600 6300
Wire Wire Line
	1600 6300 1600 6800
Wire Wire Line
	1150 6400 1050 6400
Wire Wire Line
	8350 1550 8350 1750
Wire Wire Line
	7250 1350 7350 1350
Connection ~ 7250 1350
Wire Wire Line
	7250 1450 7350 1450
Wire Wire Line
	7050 1650 7350 1650
Wire Wire Line
	7950 1450 7850 1450
Wire Wire Line
	7850 1350 7950 1350
Connection ~ 7950 1350
Wire Wire Line
	7850 1550 8350 1550
Wire Wire Line
	7850 1650 8350 1650
Connection ~ 8350 1650
Wire Wire Line
	7350 1550 7050 1550
Connection ~ 7050 1550
Wire Wire Line
	7950 3050 7850 3050
Wire Wire Line
	7950 3150 7850 3150
Wire Wire Line
	7850 3250 8350 3250
Wire Wire Line
	7850 3350 8350 3350
Wire Wire Line
	7050 3350 7350 3350
Wire Wire Line
	7050 3250 7350 3250
Connection ~ 3800 4400
Wire Wire Line
	4550 4400 3800 4400
Wire Wire Line
	5550 4400 5650 4400
Wire Wire Line
	5550 4500 5650 4500
Wire Wire Line
	5550 4600 5650 4600
Wire Wire Line
	5550 4700 5650 4700
Wire Wire Line
	3050 4000 2950 4000
Connection ~ 9600 6650
Connection ~ 9450 7350
Wire Wire Line
	9600 7350 9450 7350
Wire Wire Line
	9600 7250 9600 7350
Wire Wire Line
	9450 6550 9450 7450
Wire Wire Line
	9700 6550 9450 6550
Wire Wire Line
	9350 6850 9700 6850
Wire Wire Line
	9350 6750 9700 6750
Wire Wire Line
	9600 5900 9600 6950
Wire Wire Line
	9600 6650 9700 6650
Wire Wire Line
	1850 4600 1950 4600
Wire Wire Line
	4450 1500 4550 1500
Wire Wire Line
	4450 1400 4550 1400
Wire Wire Line
	1850 1800 1950 1800
Wire Wire Line
	1850 1700 1950 1700
Connection ~ 1050 1600
Wire Wire Line
	1050 2100 1950 2100
Wire Wire Line
	1050 1600 1050 2100
Wire Wire Line
	900  7700 900  7600
Connection ~ 8200 6200
Wire Wire Line
	8500 6200 8200 6200
Wire Wire Line
	8500 6100 8500 6200
Connection ~ 6700 6200
Wire Wire Line
	7000 6200 6700 6200
Wire Wire Line
	7000 6100 7000 6200
Connection ~ 4200 6200
Wire Wire Line
	4500 6200 4200 6200
Wire Wire Line
	4500 6100 4500 6200
Connection ~ 9600 5950
Wire Wire Line
	9450 5950 9450 6000
Wire Wire Line
	9600 5950 9450 5950
Connection ~ 9450 6350
Wire Wire Line
	9450 6300 9450 6350
Wire Wire Line
	5550 3400 5650 3400
Wire Wire Line
	3050 3600 2950 3600
Wire Wire Line
	2950 3500 3050 3500
Wire Wire Line
	3050 3400 2950 3400
Wire Wire Line
	2950 3300 3050 3300
Wire Wire Line
	3050 3200 2950 3200
Wire Wire Line
	1950 3500 1850 3500
Wire Wire Line
	1850 3600 1950 3600
Wire Wire Line
	1300 3700 1950 3700
Wire Wire Line
	1300 4000 1300 3700
Wire Wire Line
	1250 9000 1000 9000
Wire Wire Line
	1250 9500 1000 9500
Wire Wire Line
	9000 1450 9000 1550
Wire Wire Line
	9000 1850 9000 1950
Wire Wire Line
	10300 6650 10300 6600
Connection ~ 10500 6250
Wire Wire Line
	10300 6250 10300 6300
Wire Wire Line
	10500 6250 10300 6250
Connection ~ 1000 9000
Wire Wire Line
	1250 9100 1250 9000
Connection ~ 1000 9500
Wire Wire Line
	1250 9500 1250 9400
Wire Wire Line
	6350 4550 6350 4750
Wire Wire Line
	6350 5050 6350 5250
Wire Wire Line
	1000 8900 1000 9100
Wire Wire Line
	1000 9400 1000 9600
Wire Wire Line
	5650 2100 5550 2100
Wire Wire Line
	5650 2000 5550 2000
Wire Wire Line
	14600 5200 14600 5100
Wire Wire Line
	14050 5200 14700 5200
Wire Wire Line
	12500 5100 12500 5200
Wire Wire Line
	14600 4050 14600 3950
Wire Wire Line
	14050 4050 14700 4050
Wire Notes Line
	11650 3550 12150 3550
Wire Notes Line
	11650 6050 11650 3550
Wire Notes Line
	16000 6050 11650 6050
Wire Notes Line
	16000 3550 16000 6050
Wire Notes Line
	13650 3550 16000 3550
Wire Wire Line
	15400 5300 15200 5300
Wire Wire Line
	15400 5100 15400 5300
Wire Wire Line
	13300 5300 13100 5300
Wire Wire Line
	13300 5100 13300 5300
Wire Wire Line
	15400 4150 15200 4150
Wire Wire Line
	15400 3950 15400 4150
Wire Wire Line
	13300 4150 13300 3950
Wire Wire Line
	13100 4150 13300 4150
Wire Wire Line
	14600 5300 14700 5300
Wire Wire Line
	12500 5300 12600 5300
Wire Wire Line
	14600 4150 14700 4150
Wire Wire Line
	15300 5200 15200 5200
Wire Wire Line
	15300 5200 15300 5850
Wire Wire Line
	15300 4050 15200 4050
Wire Wire Line
	15300 4050 15300 4700
Wire Wire Line
	13200 5200 13100 5200
Wire Wire Line
	13200 5200 13200 5850
Wire Wire Line
	13200 4050 13100 4050
Wire Wire Line
	13200 4050 13200 4700
Wire Wire Line
	11950 5200 12600 5200
Wire Wire Line
	11950 4050 12600 4050
Wire Wire Line
	12500 3950 12500 4050
Connection ~ 850  3300
Wire Wire Line
	1000 3300 1000 3400
Wire Wire Line
	850  3300 1000 3300
Wire Wire Line
	850  3200 850  3400
Connection ~ 1000 3900
Wire Wire Line
	1000 3700 1000 3900
Connection ~ 850  3800
Wire Wire Line
	850  3700 850  3800
Wire Wire Line
	750  3800 1950 3800
Wire Wire Line
	750  3900 1950 3900
Wire Wire Line
	4450 2500 4550 2500
Wire Wire Line
	4550 2400 4450 2400
Wire Wire Line
	4450 2100 4550 2100
Wire Wire Line
	5550 1900 5650 1900
Wire Wire Line
	5650 1800 5550 1800
Wire Wire Line
	4450 3500 4550 3500
Wire Wire Line
	5650 4200 5550 4200
Wire Wire Line
	5650 4100 5550 4100
Wire Wire Line
	4450 1300 4550 1300
Wire Wire Line
	5650 1300 5550 1300
Wire Wire Line
	4450 3100 4550 3100
Wire Wire Line
	1850 3100 1950 3100
Wire Wire Line
	1950 3000 1850 3000
Wire Wire Line
	3050 3100 2950 3100
Wire Wire Line
	3050 2800 2950 2800
Wire Wire Line
	5650 4300 5550 4300
Wire Wire Line
	5650 3300 5550 3300
Wire Wire Line
	5550 3100 5650 3100
Wire Wire Line
	5650 3000 5550 3000
Wire Wire Line
	5550 2400 5650 2400
Wire Wire Line
	5650 2300 5550 2300
Wire Wire Line
	4550 1900 4450 1900
Wire Wire Line
	4450 1800 4550 1800
Wire Wire Line
	2950 3900 3050 3900
Wire Wire Line
	3050 4300 2950 4300
Wire Wire Line
	3050 3700 2950 3700
Wire Wire Line
	5650 2600 5550 2600
Wire Wire Line
	5650 2500 5550 2500
Wire Wire Line
	1850 4800 1950 4800
Wire Wire Line
	1850 4900 1850 4800
Wire Wire Line
	3050 4800 3050 4900
Wire Wire Line
	2950 4800 3050 4800
Wire Wire Line
	3800 4200 3800 4500
Wire Wire Line
	2950 4200 3800 4200
Wire Wire Line
	1350 2200 1350 2300
Wire Wire Line
	1950 2200 1350 2200
Wire Wire Line
	3850 1700 3850 1800
Wire Wire Line
	4550 1700 3850 1700
Wire Wire Line
	3850 1600 3750 1600
Wire Wire Line
	14600 2350 14600 2250
Wire Wire Line
	14050 2350 14700 2350
Wire Wire Line
	12500 2250 12500 2350
Wire Wire Line
	14600 1200 14600 1100
Wire Wire Line
	14050 1200 14700 1200
Connection ~ 3150 2300
Wire Wire Line
	3150 2200 2950 2200
Wire Wire Line
	3150 2200 3150 2350
Wire Wire Line
	2950 2300 3150 2300
Wire Wire Line
	6450 2800 6450 2900
Wire Wire Line
	5550 2800 6450 2800
Wire Wire Line
	6450 2200 6450 2300
Wire Wire Line
	5550 2200 6450 2200
Wire Wire Line
	3150 2100 3150 2050
Wire Wire Line
	2950 2100 3150 2100
Wire Wire Line
	3150 1600 3150 1650
Wire Wire Line
	2950 1600 3150 1600
Wire Wire Line
	9900 10100 9000 10100
Wire Wire Line
	9000 10000 9900 10000
Wire Notes Line
	11550 7700 11550 2750
Wire Wire Line
	11200 7050 11100 7050
Wire Wire Line
	10400 7050 10600 7050
Wire Wire Line
	11200 6950 11100 6950
Wire Wire Line
	10600 6950 10400 6950
Wire Wire Line
	10500 6200 10500 7250
Wire Wire Line
	10500 7250 10600 7250
Wire Wire Line
	11200 7250 11200 7350
Wire Wire Line
	11100 7250 11200 7250
Wire Wire Line
	9350 6450 9700 6450
Wire Wire Line
	9350 6350 9700 6350
Connection ~ 4700 9900
Wire Wire Line
	4700 9900 4800 9900
Connection ~ 4700 9250
Wire Wire Line
	3450 10300 3350 10300
Wire Wire Line
	3350 9950 3450 9950
Wire Wire Line
	3750 9950 3850 9950
Wire Wire Line
	3850 10300 3750 10300
Connection ~ 4350 10300
Wire Wire Line
	4350 10300 4250 10300
Connection ~ 4350 9950
Wire Wire Line
	4350 9950 4250 9950
Wire Notes Line
	650  8400 1300 8400
Wire Notes Line
	650  11100 650  8400
Wire Notes Line
	10950 11100 650  11100
Wire Notes Line
	10950 8400 10950 11100
Wire Notes Line
	3500 8400 10950 8400
Wire Wire Line
	9300 9700 9900 9700
Wire Wire Line
	9300 9850 9300 9700
Wire Wire Line
	9100 9850 9300 9850
Wire Wire Line
	9100 9800 9100 9850
Wire Wire Line
	9100 9450 9100 9500
Wire Wire Line
	9300 9450 9100 9450
Wire Wire Line
	9300 9600 9300 9450
Wire Wire Line
	9900 9600 9300 9600
Connection ~ 9600 9800
Wire Wire Line
	9600 9800 9600 10300
Connection ~ 9800 10700
Wire Wire Line
	9600 10700 9600 10600
Wire Wire Line
	9800 10700 9600 10700
Connection ~ 9400 9800
Wire Wire Line
	9400 10200 9900 10200
Wire Wire Line
	9800 8800 9800 8900
Connection ~ 9400 8800
Connection ~ 9600 8800
Wire Wire Line
	9400 8700 9400 10200
Wire Wire Line
	9400 9800 9900 9800
Wire Wire Line
	9600 9500 9600 9200
Wire Wire Line
	9900 9500 9600 9500
Wire Wire Line
	9600 8800 9600 8900
Wire Wire Line
	9400 8800 9800 8800
Connection ~ 9800 10300
Wire Wire Line
	9900 10300 9800 10300
Wire Wire Line
	9800 9900 9900 9900
Wire Wire Line
	9800 9900 9800 10800
Wire Wire Line
	9800 9300 9900 9300
Wire Wire Line
	9800 9200 9800 9300
Connection ~ 6950 6300
Wire Wire Line
	6950 6300 6950 6450
Connection ~ 6950 7600
Wire Wire Line
	6950 7600 6950 7350
Wire Wire Line
	6950 6850 6950 7050
Connection ~ 3950 7600
Wire Wire Line
	3950 7600 3950 7350
Wire Wire Line
	3850 6300 4800 6300
Connection ~ 8200 7600
Wire Wire Line
	8500 7600 8500 7350
Wire Wire Line
	8500 7050 8500 6850
Wire Wire Line
	8500 6300 8500 6450
Connection ~ 3950 6300
Wire Wire Line
	3950 6450 3950 6300
Wire Wire Line
	3950 6850 3950 7050
Wire Notes Line
	8900 2750 9000 2750
Wire Notes Line
	8900 7700 8900 2750
Wire Notes Line
	8900 7700 11550 7700
Wire Notes Line
	11550 2750 11350 2750
Wire Notes Line
	10300 4600 10350 4600
Wire Notes Line
	10300 5550 10300 4600
Wire Notes Line
	11450 5550 10300 5550
Wire Notes Line
	11450 4600 11450 5550
Wire Notes Line
	10800 4600 11450 4600
Wire Wire Line
	10900 5150 11000 5150
Wire Wire Line
	10900 5250 10900 5150
Connection ~ 8400 9900
Wire Wire Line
	8300 9700 8400 9700
Connection ~ 8400 10100
Wire Wire Line
	8400 9900 8300 9900
Connection ~ 8400 10300
Wire Wire Line
	8400 10100 8300 10100
Wire Wire Line
	8400 10300 8300 10300
Wire Wire Line
	8400 9700 8400 10400
Connection ~ 7900 10300
Wire Wire Line
	7900 9450 8050 9450
Wire Wire Line
	7900 10300 7900 9450
Connection ~ 7800 10100
Wire Wire Line
	7800 9350 7800 10100
Wire Wire Line
	8050 9350 7800 9350
Connection ~ 7700 9900
Wire Wire Line
	7700 9250 8050 9250
Wire Wire Line
	7700 9900 7700 9250
Connection ~ 7600 9700
Wire Wire Line
	7600 9150 8050 9150
Wire Wire Line
	7600 9700 7600 9150
Wire Wire Line
	7500 10300 8000 10300
Wire Wire Line
	7500 10100 8000 10100
Wire Wire Line
	7500 9900 8000 9900
Wire Wire Line
	7500 9700 8000 9700
Connection ~ 6600 10100
Wire Wire Line
	6600 10300 6700 10300
Connection ~ 6600 9900
Wire Wire Line
	6600 10100 6700 10100
Connection ~ 6600 9700
Wire Wire Line
	6600 9900 6700 9900
Wire Wire Line
	6600 9600 6600 10300
Wire Wire Line
	6700 9700 6600 9700
Wire Notes Line
	650  5450 1200 5450
Wire Notes Line
	650  8050 650  5450
Wire Notes Line
	8700 8050 650  8050
Wire Notes Line
	8700 5450 8700 8050
Wire Notes Line
	3300 5450 8700 5450
Wire Wire Line
	14650 8700 14650 8800
Wire Wire Line
	14650 9200 14650 9100
Connection ~ 8200 6300
Connection ~ 7700 7600
Wire Wire Line
	8200 7600 8200 7100
Wire Wire Line
	8200 6100 8200 6800
Wire Wire Line
	8100 6300 8500 6300
Connection ~ 7200 7600
Wire Wire Line
	7200 7600 7200 7100
Connection ~ 6700 7600
Wire Wire Line
	7700 7600 7700 6600
Connection ~ 7200 6300
Wire Wire Line
	7200 6300 7200 6800
Wire Wire Line
	900  7600 8500 7600
Connection ~ 4200 7600
Wire Wire Line
	4200 7600 4200 7100
Connection ~ 4200 6300
Wire Wire Line
	4200 6100 4200 6800
Connection ~ 1150 7600
Connection ~ 2150 6900
Connection ~ 2150 7600
Connection ~ 3350 6800
Wire Wire Line
	3650 6800 3650 6600
Connection ~ 3350 6300
Wire Wire Line
	3350 6300 3350 6400
Wire Wire Line
	2350 6300 3450 6300
Wire Wire Line
	3250 6800 3650 6800
Wire Wire Line
	3350 6700 3350 6800
Connection ~ 1850 7600
Wire Wire Line
	1850 7600 1850 7100
Connection ~ 1350 7600
Wire Wire Line
	1350 7600 1350 7200
Wire Wire Line
	1150 6000 1150 7700
Wire Wire Line
	2150 6900 2250 6900
Wire Wire Line
	2150 6600 2150 7600
Connection ~ 1850 6300
Connection ~ 1350 6300
Wire Wire Line
	1850 6300 1850 6800
Wire Wire Line
	1350 6300 1350 6700
Wire Wire Line
	1050 6300 1950 6300
Wire Wire Line
	6350 6400 6450 6300
Wire Wire Line
	6100 6400 6350 6400
Connection ~ 6450 7600
Wire Wire Line
	6700 7600 6700 7100
Connection ~ 6200 7600
Wire Wire Line
	6450 7600 6450 7100
Connection ~ 4450 7200
Wire Wire Line
	4700 6400 4800 6400
Wire Wire Line
	4700 7200 4700 6400
Wire Wire Line
	4450 7200 4700 7200
Wire Wire Line
	4450 7100 4450 7600
Wire Wire Line
	4450 6300 4450 6800
Wire Wire Line
	5800 7600 5800 7100
Wire Wire Line
	5700 7600 5700 7100
Connection ~ 6700 6300
Wire Wire Line
	6700 6100 6700 6800
Connection ~ 6450 6300
Wire Wire Line
	6450 6300 6450 6800
Wire Wire Line
	6100 6300 7300 6300
Connection ~ 5800 7600
Wire Wire Line
	6200 7600 6200 7550
Wire Wire Line
	6200 7250 6200 7200
Wire Wire Line
	6200 6500 6100 6500
Connection ~ 5700 7600
Connection ~ 4450 7600
Connection ~ 4450 6300
Wire Wire Line
	3050 1400 2950 1400
Wire Wire Line
	1950 3400 1850 3400
Wire Wire Line
	1950 3300 1850 3300
Wire Wire Line
	1950 3200 1850 3200
Wire Notes Line
	9300 3100 9700 3100
Wire Notes Line
	9300 4350 9300 3100
Wire Notes Line
	11250 4350 9300 4350
Wire Notes Line
	11250 3100 11250 4350
Wire Notes Line
	10600 3100 11250 3100
Wire Wire Line
	10650 4050 10650 3950
Wire Wire Line
	10550 3850 10750 3850
Wire Wire Line
	10550 3750 10750 3750
Wire Wire Line
	10550 3650 10750 3650
Wire Wire Line
	9750 5050 9550 5050
Wire Wire Line
	9550 4950 9750 4950
Wire Wire Line
	3050 1300 2950 1300
Wire Wire Line
	1950 1400 1850 1400
Wire Wire Line
	1850 1300 1950 1300
Wire Wire Line
	950  1600 1950 1600
Wire Wire Line
	4450 2900 4550 2900
Wire Wire Line
	4450 2300 4550 2300
Wire Wire Line
	3950 3200 3950 3300
Wire Wire Line
	4550 3200 3950 3200
Wire Wire Line
	4450 3300 4550 3300
Wire Wire Line
	4550 3400 4450 3400
Wire Wire Line
	4450 2700 4550 2700
Wire Wire Line
	4450 2600 4550 2600
Wire Wire Line
	4550 2800 4450 2800
Wire Wire Line
	3050 2600 2950 2600
Wire Wire Line
	4450 4800 4450 4900
Wire Wire Line
	4550 4800 4450 4800
Wire Wire Line
	5650 4800 5650 4900
Wire Wire Line
	5550 4800 5650 4800
Wire Wire Line
	4550 2200 4450 2200
Wire Wire Line
	5650 1400 5550 1400
Wire Wire Line
	6450 3900 6450 4000
Wire Wire Line
	5550 3900 6450 3900
Wire Wire Line
	4450 3800 4550 3800
Wire Wire Line
	5650 4000 5550 4000
Wire Wire Line
	5650 3800 5550 3800
Wire Notes Line
	11900 6450 12100 6450
Wire Notes Line
	11900 9800 11900 6450
Wire Notes Line
	15800 9800 11900 9800
Wire Notes Line
	15800 6450 15800 9800
Wire Notes Line
	14450 6450 15800 6450
Connection ~ 14650 6950
Wire Wire Line
	14500 6950 14500 7050
Connection ~ 14800 6950
Wire Wire Line
	14650 6950 14650 7050
Wire Wire Line
	14500 6950 14800 6950
Wire Wire Line
	14800 6850 14800 7050
Connection ~ 14800 7450
Wire Wire Line
	14800 7350 14800 7450
Connection ~ 14650 7550
Wire Wire Line
	14650 7350 14650 7550
Connection ~ 14500 7650
Wire Wire Line
	14500 7350 14500 7650
Connection ~ 12900 8450
Wire Wire Line
	12750 8450 12750 8550
Connection ~ 13050 8450
Wire Wire Line
	12900 8450 12900 8550
Wire Wire Line
	12750 8450 13050 8450
Wire Wire Line
	13050 8350 13050 8550
Connection ~ 13050 8950
Wire Wire Line
	13050 8850 13050 8950
Connection ~ 12900 9050
Wire Wire Line
	12900 8850 12900 9050
Connection ~ 12750 9150
Wire Wire Line
	12750 8850 12750 9150
Connection ~ 12900 7000
Wire Wire Line
	12750 7000 12750 7100
Connection ~ 13050 7000
Wire Wire Line
	12900 7000 12900 7100
Wire Wire Line
	12750 7000 13050 7000
Wire Wire Line
	13050 6900 13050 7100
Connection ~ 12750 7700
Wire Wire Line
	12750 7400 12750 7700
Connection ~ 12900 7600
Wire Wire Line
	12900 7400 12900 7600
Connection ~ 13050 7500
Wire Wire Line
	13050 7400 13050 7500
Wire Notes Line
	9000 4600 9100 4600
Wire Notes Line
	9000 5550 9000 4600
Wire Notes Line
	10200 5550 9000 5550
Wire Notes Line
	10200 4600 10200 5550
Wire Notes Line
	9850 4600 10200 4600
Wire Wire Line
	9650 5150 9750 5150
Wire Wire Line
	9650 5250 9650 5150
Wire Notes Line
	8650 900  9250 900 
Wire Notes Line
	8650 2350 8650 900 
Wire Notes Line
	11550 2350 8650 2350
Wire Notes Line
	11550 900  11550 2350
Wire Notes Line
	9900 900  11550 900 
Wire Notes Line
	11650 700  12150 700 
Wire Notes Line
	11650 3200 11650 700 
Wire Notes Line
	16000 3200 11650 3200
Wire Notes Line
	16000 700  16000 3200
Wire Notes Line
	14900 700  16000 700 
Connection ~ 9550 1450
Wire Wire Line
	9550 1550 9650 1550
Wire Wire Line
	9000 1450 9650 1450
Wire Wire Line
	9550 1350 9550 1550
Wire Wire Line
	9650 1750 9550 1750
Wire Wire Line
	9550 1850 9650 1850
Wire Wire Line
	9550 1650 9650 1650
Wire Wire Line
	11150 1850 10950 1850
Wire Wire Line
	11150 1450 10950 1450
Wire Wire Line
	11150 1550 11150 1450
Wire Wire Line
	15400 2450 15200 2450
Wire Wire Line
	15400 2250 15400 2450
Wire Wire Line
	13300 2450 13100 2450
Wire Wire Line
	13300 2250 13300 2450
Wire Wire Line
	15400 1300 15200 1300
Wire Wire Line
	15400 1100 15400 1300
Wire Wire Line
	13300 1300 13300 1100
Wire Wire Line
	13100 1300 13300 1300
Wire Wire Line
	14600 2450 14700 2450
Wire Wire Line
	12500 2450 12600 2450
Wire Wire Line
	12650 9150 13350 9150
Wire Wire Line
	12650 9050 13350 9050
Wire Wire Line
	12650 8950 13350 8950
Wire Wire Line
	14400 7550 15100 7550
Wire Wire Line
	14400 7650 15100 7650
Wire Wire Line
	14400 7450 15100 7450
Wire Wire Line
	12650 7700 13350 7700
Wire Wire Line
	12650 7600 13350 7600
Wire Wire Line
	12650 7500 13350 7500
Connection ~ 13250 9350
Wire Wire Line
	13350 9350 13250 9350
Wire Wire Line
	13250 9250 13350 9250
Wire Wire Line
	13250 9250 13250 9450
Connection ~ 13250 7900
Wire Wire Line
	13350 7900 13250 7900
Wire Wire Line
	13250 7800 13350 7800
Wire Wire Line
	13250 7800 13250 8000
Connection ~ 15000 7850
Wire Wire Line
	15100 7850 15000 7850
Wire Wire Line
	15000 7750 15000 7950
Wire Wire Line
	15100 7750 15000 7750
Wire Wire Line
	13250 8850 13250 8750
Wire Wire Line
	13350 8850 13250 8850
Wire Wire Line
	15000 7350 15100 7350
Wire Wire Line
	15000 7250 15000 7350
Wire Wire Line
	13250 7400 13350 7400
Wire Wire Line
	13250 7300 13250 7400
Wire Wire Line
	14600 1300 14700 1300
Wire Wire Line
	12500 1300 12600 1300
Wire Wire Line
	15300 2350 15200 2350
Wire Wire Line
	15300 2350 15300 3000
Wire Wire Line
	15300 1200 15200 1200
Wire Wire Line
	15300 1200 15300 1850
Wire Wire Line
	13200 2350 13100 2350
Wire Wire Line
	13200 2350 13200 3000
Wire Wire Line
	13200 1200 13100 1200
Wire Wire Line
	13200 1200 13200 1850
Wire Wire Line
	11950 2350 12600 2350
Wire Wire Line
	11950 1200 12600 1200
Wire Wire Line
	12500 1100 12500 1200
Connection ~ 5500 10550
Wire Wire Line
	5500 10350 5900 10350
Wire Wire Line
	5500 10550 5500 10350
Wire Wire Line
	4700 10550 4800 10550
Wire Wire Line
	5400 10550 5600 10550
Wire Wire Line
	6000 10550 5900 10550
Wire Wire Line
	6000 10650 6000 10550
Wire Wire Line
	6000 9900 5900 9900
Wire Wire Line
	6000 10000 6000 9900
Connection ~ 5500 9900
Wire Wire Line
	5500 9700 5500 9900
Wire Wire Line
	5900 9700 5500 9700
Wire Wire Line
	5400 9900 5600 9900
Connection ~ 5500 9250
Wire Wire Line
	5500 9050 5500 9250
Wire Wire Line
	5900 9050 5500 9050
Wire Wire Line
	4700 9150 4700 10550
Wire Wire Line
	4800 9250 4700 9250
Wire Wire Line
	5400 9250 5600 9250
Wire Wire Line
	6000 9250 5900 9250
Wire Wire Line
	6000 9350 6000 9250
Connection ~ 4350 9600
Wire Wire Line
	4250 9250 4350 9250
Wire Wire Line
	4350 9600 4250 9600
Wire Wire Line
	4350 9250 4350 10400
Wire Wire Line
	3350 9600 3450 9600
Wire Wire Line
	3450 9250 3350 9250
Wire Wire Line
	3750 9250 3850 9250
Wire Wire Line
	3750 9600 3850 9600
Wire Wire Line
	1200 10050 1300 10050
Connection ~ 1650 10050
Wire Wire Line
	1650 10050 1650 10100
Wire Wire Line
	1600 10050 1700 10050
Connection ~ 2000 10450
Wire Wire Line
	2000 10250 2000 10500
Wire Wire Line
	1650 10450 2000 10450
Wire Wire Line
	1650 10400 1650 10450
Wire Wire Line
	2200 9600 2300 9600
Wire Wire Line
	2200 9750 2200 9600
Wire Wire Line
	2000 9750 2200 9750
Connection ~ 2000 9250
Wire Wire Line
	2200 9400 2300 9400
Wire Wire Line
	2200 9250 2200 9400
Wire Wire Line
	2000 9250 2200 9250
Wire Wire Line
	2000 9150 2000 9350
Connection ~ 2000 9750
Wire Wire Line
	2000 9650 2000 9850
Wire Wire Line
	7950 4150 7850 4150
Wire Wire Line
	7250 3650 7350 3650
Wire Wire Line
	7250 3550 7350 3550
Wire Wire Line
	7250 3450 7350 3450
Wire Wire Line
	7950 2550 7850 2550
Wire Wire Line
	7250 2550 7350 2550
Wire Wire Line
	7250 2450 7350 2450
Wire Wire Line
	7100 4550 7100 4750
Wire Wire Line
	7100 5250 7100 5050
Wire Wire Line
	10650 3950 10750 3950
Wire Wire Line
	10750 3550 10650 3550
Wire Wire Line
	10650 3550 10650 3450
$EndSCHEMATC
